; generated by Slic3r 1.36.2-prusa3d-stable-win64 on 2018-02-04 at 18:55:29

; 

; external perimeters extrusion width = 0.45mm
; perimeters extrusion width = 0.45mm
; infill extrusion width = 0.45mm
; solid infill extrusion width = 0.45mm
; top infill extrusion width = 0.40mm
; first layer extrusion width = 0.42mm

M107
M115 U3.0.12 ; tell printer latest fw version
M83  ; extruder relative mode
M104 S215 ; set extruder temp
M140 S55 ; set bed temp
M190 S55 ; wait for bed temp
M109 S215 ; wait for extruder temp
G28 W ; home all without mesh bed level
G80 ; mesh bed leveling
G1 Y-3.0 F1000.0 ; go outside pritn area
G1 X60.0 E9.0  F1000.0 ; intro line
G1 X100.0 E12.5  F1000.0 ; intro line
; Filament gcode

G21 ; set units to millimeters
G90 ; use absolute coordinates
M83 ; use relative distances for extrusion
G1 E-0.80000 F2100.00000
G1 Z0.200 F7200.000
G1 X123.043 Y101.129 F7200.000
G1 E0.80000 F2100.00000
M204 S1000
G1 F840
G1 X123.310 Y100.810 E0.01253
G1 X123.630 Y100.542 E0.01253
G1 X123.990 Y100.334 E0.01253
G1 X124.369 Y100.196 E0.01214
G1 X124.597 Y100.146 E0.00702
G1 X124.987 Y100.111 E0.01176
G1 X125.414 Y100.146 E0.01288
G1 X125.817 Y100.254 E0.01257
G1 X126.183 Y100.425 E0.01214
G1 X126.380 Y100.551 E0.00704
G1 X126.680 Y100.802 E0.01175
G1 X126.838 Y100.974 E0.00704
G1 X127.069 Y101.305 E0.01214
G1 X127.245 Y101.682 E0.01253
G1 X127.353 Y102.085 E0.01253
G1 X127.389 Y102.500 E0.01253
G1 X127.354 Y102.902 E0.01214
G1 X127.304 Y103.130 E0.00704
G1 X127.165 Y103.509 E0.01214
G1 X126.957 Y103.870 E0.01253
G1 X126.698 Y104.179 E0.01214
G1 X126.526 Y104.337 E0.00702
G1 X126.206 Y104.562 E0.01176
G1 X125.818 Y104.744 E0.01288
G1 X125.415 Y104.853 E0.01257
G1 X125.000 Y104.889 E0.01253
G1 X124.585 Y104.853 E0.01253
G1 X124.195 Y104.748 E0.01214
G1 X123.979 Y104.659 E0.00704
G1 X123.630 Y104.457 E0.01214
G1 X123.320 Y104.197 E0.01214
G1 X123.163 Y104.025 E0.00702
G1 X122.938 Y103.705 E0.01176
G1 X122.755 Y103.318 E0.01288
G1 X122.647 Y102.914 E0.01257
G1 X122.611 Y102.500 E0.01253
G1 X122.646 Y102.097 E0.01214
G1 X122.696 Y101.869 E0.00704
G1 X122.835 Y101.490 E0.01214
G1 X123.013 Y101.181 E0.01072
G1 X123.339 Y101.370 F7200.000
G1 F840
G1 X123.578 Y101.078 E0.01134
G1 X123.847 Y100.852 E0.01054
G1 X124.150 Y100.677 E0.01054
G1 X124.475 Y100.559 E0.01040
G1 X124.655 Y100.519 E0.00555
G1 X124.988 Y100.489 E0.01005
G1 X125.349 Y100.519 E0.01088
G1 X125.688 Y100.610 E0.01056
G1 X126.001 Y100.756 E0.01040
G1 X126.157 Y100.855 E0.00555
G1 X126.418 Y101.075 E0.01027
G1 X126.543 Y101.211 E0.00555
G1 X126.741 Y101.494 E0.01040
G1 X126.890 Y101.812 E0.01054
G1 X126.980 Y102.150 E0.01054
G1 X127.011 Y102.500 E0.01054
G1 X126.981 Y102.844 E0.01040
G1 X126.941 Y103.024 E0.00555
G1 X126.822 Y103.349 E0.01040
G1 X126.647 Y103.653 E0.01054
G1 X126.425 Y103.918 E0.01040
G1 X126.289 Y104.042 E0.00555
G1 X126.015 Y104.235 E0.01005
G1 X125.688 Y104.389 E0.01088
G1 X125.349 Y104.480 E0.01056
G1 X125.000 Y104.510 E0.01054
G1 X124.651 Y104.480 E0.01054
G1 X124.317 Y104.390 E0.01040
G1 X124.146 Y104.320 E0.00555
G1 X123.847 Y104.147 E0.01040
G1 X123.582 Y103.924 E0.01040
G1 X123.457 Y103.788 E0.00555
G1 X123.265 Y103.515 E0.01005
G1 X123.111 Y103.188 E0.01088
G1 X123.020 Y102.849 E0.01056
G1 X122.989 Y102.500 E0.01054
G1 X123.019 Y102.155 E0.01040
G1 X123.059 Y101.975 E0.00555
G1 X123.178 Y101.650 E0.01040
G1 X123.309 Y101.422 E0.00793
G1 X123.177 Y101.029 F7200.000
G1 F5760
G1 X123.578 Y101.078 E-0.15117
G1 F5760
G1 X123.847 Y100.852 E-0.12140
G1 F5760
G1 X124.150 Y100.677 E-0.12140
G1 F5760
G1 X124.475 Y100.559 E-0.11980
G1 F5760
G1 X124.655 Y100.519 E-0.06386
G1 F5760
G1 X124.988 Y100.489 E-0.11576
G1 F5760
G1 X125.180 Y100.505 E-0.06661
G1 E-0.04000 F2100.00000
G1 X115.587 Y97.587 F7200.000
G1 E0.80000 F2100.00000
G1 F1680
G1 X134.413 Y97.587 E0.56628
G1 X134.413 Y112.413 E0.44596
G1 X115.587 Y112.413 E0.56628
G1 X115.587 Y97.647 E0.44415
G1 X115.210 Y97.210 F7200.000
G1 F1260
G1 X134.790 Y97.210 E0.58896
G1 X134.790 Y112.790 E0.46864
G1 X115.210 Y112.790 E0.58896
G1 X115.210 Y97.270 E0.46684
G1 X115.600 Y97.299 F7200.000
G1 F5760
G1 X117.404 Y97.263 E-0.76000
G1 E-0.04000 F2100.00000
G1 X122.444 Y103.249 F7200.000
G1 E0.80000 F2100.00000
G1 F1680
G1 X117.065 Y97.870 E0.23035
G1 X117.601 Y97.870 E0.01625
G1 X122.336 Y102.604 E0.20275
G1 X122.327 Y102.500 E0.00319
G1 X122.362 Y102.094 E0.01233
G1 X118.138 Y97.870 E0.18089
G1 X118.675 Y97.870 E0.01625
G1 X122.470 Y101.665 E0.16252
G1 X122.577 Y101.370 E0.00951
G1 X122.626 Y101.285 E0.00297
G1 X119.212 Y97.870 E0.14624
G1 X119.748 Y97.870 E0.01625
G1 X122.826 Y100.948 E0.13180
G1 X123.071 Y100.656 E0.01154
G1 X120.285 Y97.870 E0.11930
G1 X120.822 Y97.870 E0.01625
G1 X123.355 Y100.403 E0.10850
G1 X123.467 Y100.310 E0.00441
G1 X123.677 Y100.188 E0.00735
G1 X121.358 Y97.870 E0.09929
G1 X121.895 Y97.870 E0.01625
G1 X124.040 Y100.015 E0.09186
G1 X124.290 Y99.924 E0.00806
G1 X124.450 Y99.888 E0.00496
G1 X122.432 Y97.870 E0.08644
G1 X122.968 Y97.870 E0.01625
G1 X124.930 Y99.832 E0.08402
G1 X125.516 Y99.881 E0.01779
G1 X123.505 Y97.870 E0.08612
G1 X124.042 Y97.870 E0.01625
G1 X134.130 Y107.958 E0.43202
G1 X134.130 Y107.422 E0.01625
G1 X124.578 Y97.870 E0.40904
G1 X125.115 Y97.870 E0.01625
G1 X134.130 Y106.885 E0.38606
G1 X134.130 Y106.348 E0.01625
G1 X125.652 Y97.870 E0.36307
G1 X126.188 Y97.870 E0.01625
G1 X134.130 Y105.812 E0.34009
G1 X134.130 Y105.275 E0.01625
G1 X126.725 Y97.870 E0.31711
G1 X127.262 Y97.870 E0.01625
G1 X134.130 Y104.738 E0.29412
G1 X134.130 Y104.201 E0.01625
G1 X127.799 Y97.870 E0.27114
G1 X128.335 Y97.870 E0.01625
G1 X134.130 Y103.665 E0.24816
G1 X134.130 Y103.128 E0.01625
G1 X128.872 Y97.870 E0.22518
G1 X129.409 Y97.870 E0.01625
G1 X134.130 Y102.591 E0.20219
G1 X134.130 Y102.055 E0.01625
G1 X129.945 Y97.870 E0.17921
G1 X130.482 Y97.870 E0.01625
G1 X134.130 Y101.518 E0.15623
G1 X134.130 Y100.981 E0.01625
G1 X131.019 Y97.870 E0.13324
G1 X131.555 Y97.870 E0.01625
G1 X134.130 Y100.445 E0.11026
G1 X134.130 Y99.908 E0.01625
G1 X132.092 Y97.870 E0.08728
G1 X132.629 Y97.870 E0.01625
G1 X134.130 Y99.371 E0.06430
G1 X134.130 Y98.835 E0.01625
G1 X133.165 Y97.870 E0.04131
G1 X133.702 Y97.870 E0.01625
G1 X134.300 Y98.468 E0.02560
G1 F5760
G1 X133.702 Y97.870 E-0.29277
G1 F5760
G1 X133.165 Y97.870 E-0.18588
G1 F5760
G1 X133.740 Y98.444 E-0.28134
G1 E-0.04000 F2100.00000
G1 X134.300 Y108.665 F7200.000
G1 E0.80000 F2100.00000
G1 F1680
G1 X127.619 Y101.984 E0.28611
G1 X127.667 Y102.569 E0.01778
G1 X134.130 Y109.032 E0.27677
G1 X134.130 Y109.568 E0.01625
G1 X127.611 Y103.049 E0.27917
G1 X127.576 Y103.209 E0.00497
G1 X127.485 Y103.459 E0.00806
G1 X134.130 Y110.105 E0.28459
G1 X134.130 Y110.642 E0.01625
G1 X127.311 Y103.823 E0.29202
G1 X127.190 Y104.033 E0.00735
G1 X127.096 Y104.144 E0.00441
G1 X134.130 Y111.178 E0.30122
G1 X134.130 Y111.715 E0.01625
G1 X126.844 Y104.429 E0.31202
G1 X126.546 Y104.668 E0.01156
G1 X134.008 Y112.130 E0.31955
G1 X133.472 Y112.130 E0.01625
G1 X126.213 Y104.871 E0.31086
G1 X125.837 Y105.032 E0.01238
G1 X132.935 Y112.130 E0.30396
G1 X132.398 Y112.130 E0.01625
G1 X125.406 Y105.137 E0.29946
G1 X125.000 Y105.173 E0.01233
G1 X124.895 Y105.164 E0.00319
G1 X131.862 Y112.130 E0.29833
G1 X131.325 Y112.130 E0.01625
G1 X124.251 Y105.056 E0.30295
G1 F5760
G1 X125.802 Y106.607 E-0.76000
G1 E-0.04000 F2100.00000
G1 X130.958 Y112.300 F7200.000
G1 E0.80000 F2100.00000
G1 F1680
G1 X116.528 Y97.870 E0.61794
G1 X115.991 Y97.870 E0.01625
G1 X130.252 Y112.130 E0.61067
G1 X129.715 Y112.130 E0.01625
G1 X115.870 Y98.285 E0.59290
G1 X115.870 Y98.822 E0.01625
G1 X129.178 Y112.130 E0.56991
G1 X128.642 Y112.130 E0.01625
G1 X115.870 Y99.358 E0.54693
G1 X115.870 Y99.895 E0.01625
G1 X128.105 Y112.130 E0.52395
G1 X127.568 Y112.130 E0.01625
G1 X115.870 Y100.432 E0.50096
G1 X115.870 Y100.968 E0.01625
G1 X127.032 Y112.130 E0.47798
G1 X126.495 Y112.130 E0.01625
G1 X115.870 Y101.505 E0.45500
G1 X115.870 Y102.042 E0.01625
G1 X125.958 Y112.130 E0.43202
G1 X125.421 Y112.130 E0.01625
G1 X115.870 Y102.579 E0.40903
G1 X115.870 Y103.115 E0.01625
G1 X124.885 Y112.130 E0.38605
G1 X124.348 Y112.130 E0.01625
G1 X115.870 Y103.652 E0.36307
G1 X115.870 Y104.189 E0.01625
G1 X123.811 Y112.130 E0.34008
G1 X123.275 Y112.130 E0.01625
G1 X115.870 Y104.725 E0.31710
G1 X115.870 Y105.262 E0.01625
G1 X122.738 Y112.130 E0.29412
G1 X122.201 Y112.130 E0.01625
G1 X115.870 Y105.799 E0.27114
G1 X115.870 Y106.335 E0.01625
G1 X121.665 Y112.130 E0.24815
G1 X121.128 Y112.130 E0.01625
G1 X115.870 Y106.872 E0.22517
G1 X115.870 Y107.409 E0.01625
G1 X120.591 Y112.130 E0.20219
G1 X120.055 Y112.130 E0.01625
G1 X115.870 Y107.945 E0.17920
G1 X115.870 Y108.482 E0.01625
G1 X119.518 Y112.130 E0.15622
G1 X118.981 Y112.130 E0.01625
G1 X115.870 Y109.019 E0.13324
G1 X115.870 Y109.555 E0.01625
G1 X118.445 Y112.130 E0.11026
G1 X117.908 Y112.130 E0.01625
G1 X115.870 Y110.092 E0.08727
G1 X115.870 Y110.629 E0.01625
G1 X117.371 Y112.130 E0.06429
G1 X116.834 Y112.130 E0.01625
G1 X115.870 Y111.166 E0.04131
G1 X115.870 Y111.702 E0.01625
G1 X116.467 Y112.300 E0.02559
M106 S252.45
G1 F5760
G1 X115.870 Y111.702 E-0.29271
G1 F5760
G1 X115.870 Y111.166 E-0.18588
G1 F5760
G1 X116.444 Y111.740 E-0.28141
G1 E-0.04000 F2100.00000
G1 Z0.400 F7200.000
M104 S210 ; set temperature
G1 X123.280 Y104.222 F7200.000
G1 E0.80000 F2100.00000
M204 S800
G1 F988
G1 X123.039 Y103.938 E0.01212
G1 X122.888 Y103.709 E0.00896
G1 X122.712 Y103.332 E0.01353
G1 X122.602 Y102.922 E0.01382
G1 X122.566 Y102.500 E0.01382
G1 X122.601 Y102.091 E0.01337
G1 X122.653 Y101.856 E0.00781
G1 X122.794 Y101.471 E0.01337
G1 X123.006 Y101.103 E0.01382
G1 X123.279 Y100.778 E0.01382
G1 X123.604 Y100.505 E0.01382
G1 X123.971 Y100.293 E0.01382
G1 X124.357 Y100.153 E0.01337
G1 X124.589 Y100.101 E0.00776
G1 X124.961 Y100.067 E0.01215
G1 X125.419 Y100.101 E0.01497
G1 X125.819 Y100.208 E0.01350
G1 X126.039 Y100.299 E0.00776
G1 X126.363 Y100.484 E0.01215
G1 X126.708 Y100.766 E0.01451
G1 X126.873 Y100.946 E0.00795
G1 X127.108 Y101.282 E0.01337
G1 X127.288 Y101.667 E0.01382
G1 X127.398 Y102.077 E0.01382
G1 X127.434 Y102.500 E0.01382
G1 X127.399 Y102.908 E0.01337
G1 X127.347 Y103.143 E0.00781
G1 X127.206 Y103.528 E0.01337
G1 X126.994 Y103.896 E0.01382
G1 X126.723 Y104.220 E0.01377
G1 X126.439 Y104.460 E0.01212
G1 X126.209 Y104.612 E0.00896
G1 X125.833 Y104.787 E0.01353
G1 X125.423 Y104.897 E0.01382
G1 X125.000 Y104.934 E0.01382
G1 X124.577 Y104.897 E0.01382
G1 X124.169 Y104.788 E0.01377
G1 X123.831 Y104.632 E0.01212
G1 X123.597 Y104.488 E0.00896
G1 X123.326 Y104.261 E0.01152
M204 S1000
G1 X123.587 Y103.949 F7200.000
M204 S800
G1 F1200
G1 X123.366 Y103.694 E0.01101
G1 X123.244 Y103.510 E0.00719
G1 X123.096 Y103.192 E0.01140
G1 X123.005 Y102.851 E0.01150
G1 X122.974 Y102.500 E0.01150
G1 X123.004 Y102.153 E0.01134
G1 X123.045 Y101.971 E0.00608
G1 X123.164 Y101.643 E0.01134
G1 X123.341 Y101.338 E0.01150
G1 X123.568 Y101.067 E0.01150
G1 X123.838 Y100.840 E0.01150
G1 X124.144 Y100.663 E0.01150
G1 X124.471 Y100.544 E0.01134
G1 X124.653 Y100.504 E0.00606
G1 X124.964 Y100.475 E0.01020
G1 X125.350 Y100.504 E0.01261
G1 X125.688 Y100.595 E0.01139
G1 X125.860 Y100.666 E0.00606
G1 X126.132 Y100.821 E0.01020
G1 X126.428 Y101.063 E0.01245
G1 X126.555 Y101.201 E0.00612
G1 X126.754 Y101.487 E0.01134
G1 X126.904 Y101.807 E0.01150
G1 X126.995 Y102.148 E0.01150
G1 X127.026 Y102.500 E0.01150
G1 X126.996 Y102.846 E0.01134
G1 X126.955 Y103.029 E0.00608
G1 X126.836 Y103.356 E0.01134
G1 X126.659 Y103.662 E0.01150
G1 X126.433 Y103.932 E0.01148
G1 X126.194 Y104.134 E0.01019
G1 X126.010 Y104.255 E0.00719
G1 X125.693 Y104.403 E0.01140
G1 X125.352 Y104.495 E0.01150
G1 X125.000 Y104.525 E0.01150
G1 X124.648 Y104.495 E0.01150
G1 X124.308 Y104.403 E0.01148
G1 X124.023 Y104.273 E0.01019
G1 X123.836 Y104.157 E0.00719
G1 X123.633 Y103.987 E0.00860
M204 S1000
G1 X123.261 Y104.037 F7200.000
G1 F5760
G1 X123.366 Y103.694 E-0.13762
G1 F5760
G1 X123.244 Y103.510 E-0.07643
G1 F5760
G1 X123.096 Y103.192 E-0.12120
G1 F5760
G1 X123.005 Y102.851 E-0.12231
G1 F5760
G1 X122.974 Y102.500 E-0.12231
G1 F5760
G1 X123.004 Y102.153 E-0.12060
G1 F5760
G1 X123.042 Y101.985 E-0.05954
G1 E-0.04000 F2100.00000
G1 X115.632 Y97.632 F7200.000
G1 E0.80000 F2100.00000
M204 S800
G1 F1976
G1 X134.368 Y97.632 E0.61031
G1 X134.368 Y112.368 E0.48001
G1 X115.632 Y112.368 E0.61031
G1 X115.632 Y97.692 E0.47806
M204 S1000
G1 X115.225 Y97.225 F7200.000
M204 S800
G1 F1800
G1 X134.775 Y97.225 E0.63683
G1 X134.775 Y112.775 E0.50653
G1 X115.225 Y112.775 E0.63683
G1 X115.225 Y97.285 E0.50458
M204 S1000
G1 X115.615 Y97.314 F7200.000
G1 F5760
G1 X117.419 Y97.278 E-0.76000
G1 E-0.04000 F2100.00000
G1 X115.754 Y98.584 F7200.000
G1 E0.80000 F2100.00000
M204 S2000
G1 F1976
G1 X116.400 Y97.937 E0.03000
G1 X116.980 Y97.937 E0.01905
G1 X115.937 Y98.980 E0.04843
G1 X115.937 Y99.561 E0.01905
G1 X117.561 Y97.937 E0.07537
G1 X118.141 Y97.937 E0.01905
G1 X115.937 Y100.141 E0.10230
G1 X115.937 Y100.721 E0.01905
G1 X118.721 Y97.937 E0.12924
G1 X119.301 Y97.937 E0.01905
G1 X115.937 Y101.301 E0.15617
G1 X115.937 Y101.881 E0.01905
G1 X119.881 Y97.937 E0.18310
G1 X120.461 Y97.937 E0.01905
G1 X115.937 Y102.461 E0.21004
G1 X115.937 Y103.041 E0.01905
G1 X121.041 Y97.937 E0.23697
G1 X121.621 Y97.937 E0.01905
G1 X115.937 Y103.621 E0.26391
G1 X115.937 Y104.201 E0.01905
G1 X122.201 Y97.937 E0.29084
G1 X122.781 Y97.937 E0.01905
G1 X115.937 Y104.781 E0.31777
G1 X115.937 Y105.361 E0.01905
G1 X123.361 Y97.937 E0.34471
G1 X123.941 Y97.937 E0.01905
G1 X115.937 Y105.941 E0.37164
G1 X115.937 Y106.522 E0.01905
G1 X124.522 Y97.937 E0.39858
G1 X125.102 Y97.937 E0.01905
G1 X115.754 Y107.285 E0.43402
M204 S1000
G1 F5760
G1 X117.306 Y105.733 E-0.76000
G1 E-0.04000 F2100.00000
G1 X133.416 Y112.246 F7200.000
G1 E0.80000 F2100.00000
M204 S2000
G1 F1976
G1 X134.063 Y111.600 E0.03001
G1 X134.063 Y111.019 E0.01905
G1 X133.019 Y112.063 E0.04844
G1 X132.439 Y112.063 E0.01905
G1 X134.063 Y110.439 E0.07537
G1 X134.063 Y109.859 E0.01905
G1 X131.859 Y112.063 E0.10231
G1 X131.279 Y112.063 E0.01905
G1 X134.063 Y109.279 E0.12924
G1 X134.063 Y108.699 E0.01905
G1 X130.699 Y112.063 E0.15617
G1 X130.119 Y112.063 E0.01905
G1 X134.063 Y108.119 E0.18311
G1 X134.063 Y107.539 E0.01905
G1 X129.539 Y112.063 E0.21004
G1 X128.959 Y112.063 E0.01905
G1 X134.063 Y106.959 E0.23698
G1 X134.063 Y106.379 E0.01905
G1 X128.379 Y112.063 E0.26391
G1 X127.799 Y112.063 E0.01905
G1 X134.063 Y105.799 E0.29084
G1 X134.063 Y105.219 E0.01905
G1 X127.219 Y112.063 E0.31778
G1 X126.639 Y112.063 E0.01905
G1 X134.063 Y104.639 E0.34471
G1 X134.063 Y104.058 E0.01905
G1 X126.058 Y112.063 E0.37165
G1 X125.478 Y112.063 E0.01905
G1 X134.063 Y103.478 E0.39858
G1 X134.063 Y102.898 E0.01905
G1 X124.898 Y112.063 E0.42551
G1 X124.318 Y112.063 E0.01905
G1 X134.063 Y102.318 E0.45245
G1 X134.063 Y101.738 E0.01905
G1 X123.738 Y112.063 E0.47938
G1 X123.158 Y112.063 E0.01905
G1 X134.063 Y101.158 E0.50632
G1 X134.063 Y100.578 E0.01905
G1 X122.578 Y112.063 E0.53325
G1 X121.998 Y112.063 E0.01905
G1 X134.063 Y99.998 E0.56018
G1 X134.063 Y99.418 E0.01905
G1 X121.418 Y112.063 E0.58712
G1 X120.838 Y112.063 E0.01905
G1 X134.063 Y98.838 E0.61405
G1 X134.063 Y98.258 E0.01905
G1 X120.258 Y112.063 E0.64099
G1 X119.678 Y112.063 E0.01905
G1 X133.803 Y97.937 E0.65586
G1 X133.223 Y97.937 E0.01905
G1 X119.097 Y112.063 E0.65586
G1 X118.517 Y112.063 E0.01905
G1 X125.372 Y105.208 E0.31827
G1 X125.000 Y105.241 E0.01226
G1 X124.779 Y105.221 E0.00729
G1 X117.937 Y112.063 E0.31766
G1 X117.357 Y112.063 E0.01905
G1 X124.285 Y105.135 E0.32167
G1 X124.065 Y105.076 E0.00748
G1 X123.859 Y104.981 E0.00745
G1 X116.777 Y112.063 E0.32881
G1 X116.197 Y112.063 E0.01905
G1 X123.483 Y104.777 E0.33830
G1 X123.160 Y104.520 E0.01356
G1 X115.937 Y111.742 E0.33535
G1 X115.937 Y111.162 E0.01905
G1 X122.879 Y104.221 E0.32229
G1 X122.637 Y103.883 E0.01365
G1 X115.937 Y110.582 E0.31107
G1 X115.937 Y110.002 E0.01905
G1 X122.449 Y103.490 E0.30235
G1 X122.318 Y103.041 E0.01536
G1 X115.937 Y109.422 E0.29627
G1 X115.937 Y108.842 E0.01905
G1 X122.261 Y102.519 E0.29360
G1 X122.299 Y102.044 E0.01563
G1 X122.340 Y101.859 E0.00621
G1 X115.937 Y108.262 E0.29728
G1 X115.937 Y107.682 E0.01905
G1 X125.682 Y97.937 E0.45244
G1 X126.262 Y97.937 E0.01905
G1 X124.360 Y99.839 E0.08831
G1 X124.542 Y99.799 E0.00613
G1 X125.015 Y99.765 E0.01555
G1 X126.842 Y97.937 E0.08484
G1 X127.422 Y97.937 E0.01905
G1 X125.542 Y99.818 E0.08731
G1 X125.991 Y99.949 E0.01536
G1 X128.002 Y97.937 E0.09339
G1 X128.582 Y97.937 E0.01905
G1 X126.378 Y100.141 E0.10233
G1 X126.537 Y100.232 E0.00599
G1 X126.719 Y100.381 E0.00773
G1 X129.162 Y97.937 E0.11345
G1 X129.742 Y97.937 E0.01905
G1 X127.022 Y100.657 E0.12629
G1 X127.274 Y100.986 E0.01359
G1 X130.322 Y97.937 E0.14156
G1 X130.902 Y97.937 E0.01905
G1 X127.481 Y101.359 E0.15887
G1 X127.576 Y101.562 E0.00736
G1 X127.635 Y101.785 E0.00756
G1 X131.482 Y97.937 E0.17863
G1 X132.063 Y97.937 E0.01905
G1 X127.722 Y102.278 E0.20156
G1 X127.741 Y102.500 E0.00729
G1 X127.708 Y102.872 E0.01226
G1 X132.826 Y97.754 E0.23761
M204 S1000
G1 F5760
G1 X131.274 Y99.306 E-0.76000
G1 E-0.04000 F2100.00000
G1 Z0.600 F7200.000
G1 X127.111 Y101.288 F7200.000
G1 E0.80000 F2100.00000
M204 S800
G1 F982
G1 X127.288 Y101.667 E0.01361
G1 X127.398 Y102.077 E0.01382
G1 X127.434 Y102.500 E0.01382
G1 X127.399 Y102.908 E0.01337
G1 X127.347 Y103.143 E0.00781
G1 X127.206 Y103.528 E0.01337
G1 X126.994 Y103.896 E0.01382
G1 X126.723 Y104.219 E0.01372
G1 X126.460 Y104.444 E0.01131
G1 X126.211 Y104.611 E0.00973
G1 X125.833 Y104.787 E0.01361
G1 X125.423 Y104.897 E0.01382
G1 X125.000 Y104.934 E0.01382
G1 X124.567 Y104.896 E0.01415
G1 X124.044 Y104.738 E0.01779
G1 X123.608 Y104.498 E0.01621
G1 X123.271 Y104.214 E0.01436
G1 X122.933 Y103.785 E0.01779
G1 X122.714 Y103.338 E0.01621
G1 X122.602 Y102.922 E0.01403
G1 X122.566 Y102.500 E0.01382
G1 X122.603 Y102.067 E0.01415
G1 X122.761 Y101.544 E0.01779
G1 X123.002 Y101.108 E0.01621
G1 X123.279 Y100.778 E0.01403
G1 X123.604 Y100.505 E0.01382
G1 X123.971 Y100.293 E0.01382
G1 X124.379 Y100.145 E0.01415
G1 X124.920 Y100.067 E0.01779
G1 X125.417 Y100.100 E0.01621
G1 X125.833 Y100.212 E0.01403
G1 X126.205 Y100.385 E0.01337
G1 X126.407 Y100.514 E0.00781
G1 X126.719 Y100.776 E0.01327
G1 X126.945 Y101.040 E0.01131
G1 X127.078 Y101.238 E0.00778
M204 S1000
G1 X126.166 Y100.843 F7200.000
M204 S800
G1 F1200
G1 X126.432 Y101.066 E0.01131
G1 X126.620 Y101.286 E0.00943
G1 X126.755 Y101.489 E0.00793
G1 X126.904 Y101.807 E0.01143
G1 X126.995 Y102.148 E0.01150
G1 X127.026 Y102.500 E0.01150
G1 X126.996 Y102.846 E0.01134
G1 X126.955 Y103.029 E0.00608
G1 X126.836 Y103.356 E0.01134
G1 X126.659 Y103.662 E0.01150
G1 X126.433 Y103.931 E0.01147
G1 X126.213 Y104.119 E0.00943
G1 X126.011 Y104.255 E0.00793
G1 X125.693 Y104.403 E0.01143
G1 X125.352 Y104.495 E0.01150
G1 X125.000 Y104.525 E0.01150
G1 X124.645 Y104.494 E0.01162
G1 X124.203 Y104.361 E0.01502
G1 X123.840 Y104.160 E0.01352
G1 X123.565 Y103.930 E0.01169
G1 X123.280 Y103.567 E0.01502
G1 X123.097 Y103.195 E0.01352
G1 X123.005 Y102.851 E0.01158
G1 X122.974 Y102.500 E0.01150
G1 X123.005 Y102.144 E0.01162
G1 X123.139 Y101.703 E0.01502
G1 X123.339 Y101.339 E0.01352
G1 X123.568 Y101.067 E0.01158
G1 X123.838 Y100.840 E0.01150
G1 X124.144 Y100.663 E0.01150
G1 X124.479 Y100.541 E0.01162
G1 X124.935 Y100.476 E0.01502
G1 X125.350 Y100.504 E0.01352
G1 X125.693 Y100.596 E0.01158
G1 X126.115 Y100.811 E0.01544
M204 S1000
G1 X126.478 Y100.692 F7200.000
G1 F5760
G1 X126.432 Y101.066 E-0.14086
G1 F5760
G1 X126.620 Y101.286 E-0.10030
G1 F5760
G1 X126.755 Y101.489 E-0.08435
G1 F5760
G1 X126.904 Y101.807 E-0.12150
G1 F5760
G1 X126.995 Y102.148 E-0.12231
G1 F5760
G1 X127.026 Y102.500 E-0.12231
G1 F5760
G1 X127.009 Y102.696 E-0.06839
G1 E-0.04000 F2100.00000
G1 X134.368 Y97.632 F7200.000
G1 E0.80000 F2100.00000
M204 S800
G1 F1963
G1 X134.368 Y112.368 E0.48001
G1 X115.632 Y112.368 E0.61031
G1 X115.632 Y97.632 E0.48001
G1 X134.308 Y97.632 E0.60835
M204 S1000
G1 X134.775 Y97.225 F7200.000
M204 S800
G1 F1800
G1 X134.775 Y112.775 E0.50653
G1 X115.225 Y112.775 E0.63683
G1 X115.225 Y97.225 E0.50653
G1 X134.715 Y97.225 E0.63487
M204 S1000
G1 X134.657 Y97.607 F7200.000
G1 F5760
G1 X134.723 Y99.419 E-0.76000
G1 E-0.04000 F2100.00000
G1 X134.246 Y98.584 F7200.000
G1 E0.80000 F2100.00000
M204 S2000
G1 F1963
G1 X133.600 Y97.937 E0.03001
G1 X133.019 Y97.937 E0.01905
G1 X134.063 Y98.981 E0.04844
G1 X134.063 Y99.561 E0.01905
G1 X132.439 Y97.937 E0.07537
G1 X131.859 Y97.937 E0.01905
G1 X134.063 Y100.141 E0.10231
G1 X134.063 Y100.721 E0.01905
G1 X131.279 Y97.937 E0.12924
G1 X130.699 Y97.937 E0.01905
G1 X134.063 Y101.301 E0.15617
G1 X134.063 Y101.881 E0.01905
G1 X130.119 Y97.937 E0.18311
G1 X129.539 Y97.937 E0.01905
G1 X134.063 Y102.461 E0.21004
G1 X134.063 Y103.041 E0.01905
G1 X128.959 Y97.937 E0.23698
G1 X128.379 Y97.937 E0.01905
G1 X134.063 Y103.621 E0.26391
G1 X134.063 Y104.201 E0.01905
G1 X127.799 Y97.937 E0.29084
G1 X127.219 Y97.937 E0.01905
G1 X134.063 Y104.781 E0.31778
G1 X134.063 Y105.361 E0.01905
G1 X126.639 Y97.937 E0.34471
G1 X126.058 Y97.937 E0.01905
G1 X134.063 Y105.942 E0.37165
G1 X134.063 Y106.522 E0.01905
G1 X125.478 Y97.937 E0.39858
G1 X124.898 Y97.937 E0.01905
G1 X134.063 Y107.102 E0.42551
G1 X134.063 Y107.682 E0.01905
G1 X124.318 Y97.937 E0.45245
G1 X123.738 Y97.937 E0.01905
G1 X125.647 Y99.846 E0.08862
G1 X125.467 Y99.798 E0.00611
G1 X124.986 Y99.765 E0.01583
G1 X123.158 Y97.937 E0.08487
G1 X122.578 Y97.937 E0.01905
G1 X124.464 Y99.824 E0.08759
G1 X124.305 Y99.847 E0.00530
G1 X124.013 Y99.953 E0.01018
G1 X121.998 Y97.937 E0.09358
G1 X121.418 Y97.937 E0.01905
G1 X123.622 Y100.142 E0.10236
G1 X123.428 Y100.254 E0.00738
G1 X123.279 Y100.379 E0.00637
G1 X120.838 Y97.937 E0.11337
G1 X120.258 Y97.937 E0.01905
G1 X122.980 Y100.659 E0.12639
G1 X122.722 Y100.982 E0.01355
G1 X119.678 Y97.937 E0.14138
G1 X119.097 Y97.937 E0.01905
G1 X122.516 Y101.356 E0.15874
G1 X122.479 Y101.425 E0.00257
G1 X122.369 Y101.789 E0.01248
G1 X118.517 Y97.937 E0.17881
G1 X117.937 Y97.937 E0.01905
G1 X122.278 Y102.278 E0.20156
G1 X122.259 Y102.500 E0.00729
G1 X122.292 Y102.872 E0.01227
G1 X117.357 Y97.937 E0.22911
G1 X116.777 Y97.937 E0.01905
G1 X130.902 Y112.063 E0.65586
G1 X131.482 Y112.063 E0.01905
G1 X124.628 Y105.208 E0.31827
G1 X125.000 Y105.241 E0.01227
G1 X125.221 Y105.221 E0.00729
G1 X132.063 Y112.063 E0.31766
G1 X132.643 Y112.063 E0.01905
G1 X125.715 Y105.135 E0.32167
G1 X125.937 Y105.075 E0.00757
G1 X126.141 Y104.980 E0.00736
G1 X133.223 Y112.063 E0.32884
G1 X133.803 Y112.063 E0.01905
G1 X126.515 Y104.775 E0.33839
G1 X126.841 Y104.520 E0.01357
G1 X134.063 Y111.742 E0.33533
G1 X134.063 Y111.162 E0.01905
G1 X127.121 Y104.220 E0.32233
G1 X127.245 Y104.072 E0.00637
G1 X127.358 Y103.877 E0.00738
G1 X134.063 Y110.582 E0.31133
G1 X134.063 Y110.002 E0.01905
G1 X127.547 Y103.486 E0.30255
G1 X127.641 Y103.228 E0.00901
G1 X127.682 Y103.041 E0.00629
G1 X134.063 Y109.422 E0.29626
G1 X134.063 Y108.842 E0.01905
G1 X127.739 Y102.519 E0.29360
G1 X127.699 Y102.024 E0.01631
G1 X127.654 Y101.853 E0.00581
G1 X134.246 Y108.445 E0.30609
M204 S1000
G1 F5760
G1 X132.694 Y106.893 E-0.76000
G1 E-0.04000 F2100.00000
G1 X130.506 Y112.246 F7200.000
G1 E0.80000 F2100.00000
M204 S2000
G1 F1963
G1 X116.197 Y97.937 E0.66436
G1 X115.937 Y97.937 E0.00853
G1 X115.937 Y98.258 E0.01052
G1 X129.742 Y112.063 E0.64098
G1 X129.162 Y112.063 E0.01905
G1 X115.937 Y98.838 E0.61405
G1 X115.937 Y99.418 E0.01905
G1 X128.582 Y112.063 E0.58711
G1 X128.002 Y112.063 E0.01905
G1 X115.937 Y99.998 E0.56018
G1 X115.937 Y100.578 E0.01905
G1 X127.422 Y112.063 E0.53325
G1 X126.842 Y112.063 E0.01905
G1 X115.937 Y101.158 E0.50631
G1 X115.937 Y101.738 E0.01905
G1 X126.262 Y112.063 E0.47938
G1 X125.682 Y112.063 E0.01905
G1 X115.937 Y102.318 E0.45244
G1 X115.937 Y102.898 E0.01905
G1 X125.102 Y112.063 E0.42551
G1 X124.522 Y112.063 E0.01905
G1 X115.937 Y103.478 E0.39858
G1 X115.937 Y104.059 E0.01905
G1 X123.941 Y112.063 E0.37164
G1 X123.361 Y112.063 E0.01905
G1 X115.937 Y104.639 E0.34471
G1 X115.937 Y105.219 E0.01905
G1 X122.781 Y112.063 E0.31777
G1 X122.201 Y112.063 E0.01905
G1 X115.937 Y105.799 E0.29084
G1 X115.937 Y106.379 E0.01905
G1 X121.621 Y112.063 E0.26391
G1 X121.041 Y112.063 E0.01905
G1 X115.937 Y106.959 E0.23697
G1 X115.937 Y107.539 E0.01905
G1 X120.461 Y112.063 E0.21004
G1 X119.881 Y112.063 E0.01905
G1 X115.937 Y108.119 E0.18310
G1 X115.937 Y108.699 E0.01905
G1 X119.301 Y112.063 E0.15617
G1 X118.721 Y112.063 E0.01905
G1 X115.937 Y109.279 E0.12924
G1 X115.937 Y109.859 E0.01905
G1 X118.141 Y112.063 E0.10230
G1 X117.561 Y112.063 E0.01905
G1 X115.937 Y110.439 E0.07537
G1 X115.937 Y111.020 E0.01905
G1 X116.980 Y112.063 E0.04843
G1 X116.400 Y112.063 E0.01905
G1 X115.754 Y111.416 E0.03000
M204 S1000
G1 F5760
G1 X116.400 Y112.063 E-0.31653
G1 F5760
G1 X116.980 Y112.063 E-0.20091
G1 F5760
G1 X116.485 Y111.567 E-0.24256
G1 E-0.04000 F2100.00000
G1 Z0.800 F7200.000
G1 X123.069 Y103.981 F7200.000
G1 E0.80000 F2100.00000
M204 S800
G1 F988
G1 X122.796 Y103.536 E0.01700
G1 X122.648 Y103.130 E0.01410
G1 X122.575 Y102.712 E0.01382
G1 X122.575 Y102.301 E0.01337
G1 X122.606 Y102.063 E0.00781
G1 X122.712 Y101.667 E0.01337
G1 X122.892 Y101.282 E0.01382
G1 X123.135 Y100.935 E0.01382
G1 X123.435 Y100.635 E0.01382
G1 X123.771 Y100.399 E0.01337
G1 X123.984 Y100.288 E0.00781
G1 X124.370 Y100.148 E0.01337
G1 X124.796 Y100.073 E0.01409
G1 X125.318 Y100.087 E0.01700
G1 X125.825 Y100.208 E0.01700
G1 X126.217 Y100.391 E0.01409
G1 X126.565 Y100.635 E0.01382
G1 X126.865 Y100.935 E0.01382
G1 X127.108 Y101.282 E0.01382
G1 X127.282 Y101.654 E0.01337
G1 X127.354 Y101.883 E0.00781
G1 X127.425 Y102.287 E0.01337
G1 X127.425 Y102.698 E0.01337
G1 X127.394 Y102.936 E0.00781
G1 X127.288 Y103.332 E0.01337
G1 X127.108 Y103.717 E0.01382
G1 X126.860 Y104.071 E0.01410
G1 X126.482 Y104.430 E0.01700
G1 X126.037 Y104.703 E0.01700
G1 X125.630 Y104.851 E0.01410
G1 X125.212 Y104.925 E0.01382
G1 X124.802 Y104.925 E0.01337
G1 X124.564 Y104.893 E0.00781
G1 X124.167 Y104.787 E0.01337
G1 X123.783 Y104.608 E0.01382
G1 X123.428 Y104.360 E0.01409
G1 X123.110 Y104.025 E0.01504
M204 S1000
G1 X123.406 Y103.744 F7200.000
M204 S800
G1 F1200
G1 X123.165 Y103.358 E0.01482
G1 X123.043 Y103.024 E0.01160
G1 X122.982 Y102.676 E0.01150
G1 X122.982 Y102.328 E0.01134
G1 X123.006 Y102.143 E0.00608
G1 X123.096 Y101.807 E0.01134
G1 X123.246 Y101.487 E0.01150
G1 X123.448 Y101.197 E0.01150
G1 X123.698 Y100.948 E0.01150
G1 X123.983 Y100.748 E0.01134
G1 X124.148 Y100.662 E0.00608
G1 X124.476 Y100.543 E0.01134
G1 X124.826 Y100.481 E0.01160
G1 X125.264 Y100.492 E0.01427
G1 X125.690 Y100.595 E0.01427
G1 X126.013 Y100.745 E0.01160
G1 X126.302 Y100.948 E0.01150
G1 X126.552 Y101.197 E0.01150
G1 X126.754 Y101.487 E0.01150
G1 X126.902 Y101.802 E0.01134
G1 X126.958 Y101.980 E0.00608
G1 X127.018 Y102.323 E0.01134
G1 X127.018 Y102.671 E0.01134
G1 X126.994 Y102.856 E0.00608
G1 X126.904 Y103.192 E0.01134
G1 X126.754 Y103.512 E0.01150
G1 X126.550 Y103.804 E0.01160
G1 X126.232 Y104.106 E0.01427
G1 X125.859 Y104.335 E0.01427
G1 X125.524 Y104.456 E0.01160
G1 X125.177 Y104.518 E0.01150
G1 X124.828 Y104.518 E0.01134
G1 X124.643 Y104.493 E0.00608
G1 X124.307 Y104.403 E0.01134
G1 X123.987 Y104.254 E0.01150
G1 X123.695 Y104.050 E0.01160
G1 X123.447 Y103.788 E0.01175
M204 S1000
G1 X123.009 Y103.797 F7200.000
G1 F5760
G1 X123.165 Y103.358 E-0.17796
G1 F5760
G1 X123.043 Y103.024 E-0.12334
G1 F5760
G1 X122.982 Y102.676 E-0.12231
G1 F5760
G1 X122.982 Y102.328 E-0.12060
G1 F5760
G1 X123.006 Y102.143 E-0.06460
G1 F5760
G1 X123.096 Y101.807 E-0.12060
G1 F5760
G1 X123.134 Y101.727 E-0.03059
G1 E-0.04000 F2100.00000
G1 X115.632 Y97.632 F7200.000
G1 E0.80000 F2100.00000
M204 S800
G1 F1976
G1 X134.368 Y97.632 E0.61031
G1 X134.368 Y112.368 E0.48001
G1 X115.632 Y112.368 E0.61031
G1 X115.632 Y97.692 E0.47806
M204 S1000
G1 X115.225 Y97.225 F7200.000
M204 S800
G1 F1800
G1 X134.775 Y97.225 E0.63683
G1 X134.775 Y112.775 E0.50653
G1 X115.225 Y112.775 E0.63683
G1 X115.225 Y97.285 E0.50458
M204 S1000
G1 X115.615 Y97.314 F7200.000
G1 F5760
G1 X117.419 Y97.278 E-0.76000
G1 E-0.04000 F2100.00000
G1 X115.754 Y98.584 F7200.000
G1 E0.80000 F2100.00000
M204 S2000
G1 F1976
G1 X116.400 Y97.937 E0.03000
G1 X116.980 Y97.937 E0.01905
G1 X115.937 Y98.980 E0.04843
G1 X115.937 Y99.561 E0.01905
G1 X117.561 Y97.937 E0.07537
G1 X118.141 Y97.937 E0.01905
G1 X115.937 Y100.141 E0.10230
G1 X115.937 Y100.721 E0.01905
G1 X118.721 Y97.937 E0.12924
G1 X119.301 Y97.937 E0.01905
G1 X115.937 Y101.301 E0.15617
G1 X115.937 Y101.881 E0.01905
G1 X119.881 Y97.937 E0.18310
G1 X120.461 Y97.937 E0.01905
G1 X115.937 Y102.461 E0.21004
G1 X115.937 Y103.041 E0.01905
G1 X121.041 Y97.937 E0.23697
G1 X121.621 Y97.937 E0.01905
G1 X115.937 Y103.621 E0.26391
G1 X115.937 Y104.201 E0.01905
G1 X122.201 Y97.937 E0.29084
G1 X122.781 Y97.937 E0.01905
G1 X115.937 Y104.781 E0.31777
G1 X115.937 Y105.361 E0.01905
G1 X123.361 Y97.937 E0.34471
G1 X123.941 Y97.937 E0.01905
G1 X115.937 Y105.941 E0.37164
G1 X115.937 Y106.522 E0.01905
G1 X124.522 Y97.937 E0.39858
G1 X125.102 Y97.937 E0.01905
G1 X115.754 Y107.285 E0.43402
M204 S1000
G1 F5760
G1 X117.306 Y105.733 E-0.76000
G1 E-0.04000 F2100.00000
G1 X133.416 Y112.246 F7200.000
G1 E0.80000 F2100.00000
M204 S2000
G1 F1976
G1 X134.063 Y111.600 E0.03001
G1 X134.063 Y111.019 E0.01905
G1 X133.019 Y112.063 E0.04844
G1 X132.439 Y112.063 E0.01905
G1 X134.063 Y110.439 E0.07537
G1 X134.063 Y109.859 E0.01905
G1 X131.859 Y112.063 E0.10231
G1 X131.279 Y112.063 E0.01905
G1 X134.063 Y109.279 E0.12924
G1 X134.063 Y108.699 E0.01905
G1 X130.699 Y112.063 E0.15617
G1 X130.119 Y112.063 E0.01905
G1 X134.063 Y108.119 E0.18311
G1 X134.063 Y107.539 E0.01905
G1 X129.539 Y112.063 E0.21004
G1 X128.959 Y112.063 E0.01905
G1 X134.063 Y106.959 E0.23698
G1 X134.063 Y106.379 E0.01905
G1 X128.379 Y112.063 E0.26391
G1 X127.799 Y112.063 E0.01905
G1 X134.063 Y105.799 E0.29084
G1 X134.063 Y105.219 E0.01905
G1 X127.219 Y112.063 E0.31778
G1 X126.639 Y112.063 E0.01905
G1 X134.063 Y104.639 E0.34471
G1 X134.063 Y104.058 E0.01905
G1 X126.058 Y112.063 E0.37165
G1 X125.478 Y112.063 E0.01905
G1 X134.063 Y103.478 E0.39858
G1 X134.063 Y102.898 E0.01905
G1 X124.898 Y112.063 E0.42551
G1 X124.318 Y112.063 E0.01905
G1 X134.063 Y102.318 E0.45245
G1 X134.063 Y101.738 E0.01905
G1 X123.738 Y112.063 E0.47938
G1 X123.158 Y112.063 E0.01905
G1 X134.063 Y101.158 E0.50632
G1 X134.063 Y100.578 E0.01905
G1 X122.578 Y112.063 E0.53325
G1 X121.998 Y112.063 E0.01905
G1 X134.063 Y99.998 E0.56018
G1 X134.063 Y99.418 E0.01905
G1 X121.418 Y112.063 E0.58712
G1 X120.838 Y112.063 E0.01905
G1 X134.063 Y98.838 E0.61405
G1 X134.063 Y98.258 E0.01905
G1 X120.258 Y112.063 E0.64099
G1 X119.678 Y112.063 E0.01905
G1 X133.803 Y97.937 E0.65586
G1 X133.223 Y97.937 E0.01905
G1 X119.097 Y112.063 E0.65586
G1 X118.517 Y112.063 E0.01905
G1 X125.374 Y105.206 E0.31835
G1 X125.239 Y105.230 E0.00450
G1 X124.771 Y105.229 E0.01535
G1 X117.937 Y112.063 E0.31731
G1 X117.357 Y112.063 E0.01905
G1 X124.285 Y105.135 E0.32167
G1 X124.063 Y105.075 E0.00756
G1 X123.859 Y104.980 E0.00736
G1 X116.777 Y112.063 E0.32884
G1 X116.197 Y112.063 E0.01905
G1 X123.487 Y104.773 E0.33846
G1 X123.228 Y104.592 E0.01036
G1 X123.160 Y104.520 E0.00326
G1 X115.937 Y111.742 E0.33534
G1 X115.937 Y111.162 E0.01905
G1 X122.877 Y104.222 E0.32222
G1 X122.826 Y104.168 E0.00246
G1 X122.645 Y103.874 E0.01132
G1 X115.937 Y110.582 E0.31146
G1 X115.937 Y110.002 E0.01905
G1 X122.453 Y103.486 E0.30254
G1 X122.352 Y103.209 E0.00968
G1 X122.322 Y103.037 E0.00573
G1 X115.937 Y109.422 E0.29645
G1 X115.937 Y108.842 E0.01905
G1 X122.269 Y102.510 E0.29401
G1 X122.269 Y102.281 E0.00750
G1 X122.306 Y102.004 E0.00919
G1 X122.346 Y101.853 E0.00513
G1 X115.937 Y108.262 E0.29758
G1 X115.937 Y107.682 E0.01905
G1 X125.682 Y97.937 E0.45244
G1 X126.262 Y97.937 E0.01905
G1 X124.359 Y99.840 E0.08834
G1 X124.773 Y99.767 E0.01380
G1 X125.006 Y99.773 E0.00765
G1 X126.842 Y97.937 E0.08523
G1 X127.422 Y97.937 E0.01905
G1 X125.535 Y99.825 E0.08763
G1 X125.991 Y99.949 E0.01552
G1 X128.002 Y97.937 E0.09339
G1 X128.582 Y97.937 E0.01905
G1 X126.384 Y100.135 E0.10206
G1 X126.725 Y100.374 E0.01367
G1 X129.162 Y97.937 E0.11315
G1 X129.742 Y97.937 E0.01905
G1 X127.021 Y100.659 E0.12636
G1 X127.100 Y100.738 E0.00366
G1 X127.274 Y100.986 E0.00996
G1 X130.322 Y97.937 E0.14156
G1 X130.902 Y97.937 E0.01905
G1 X127.481 Y101.359 E0.15887
G1 X127.567 Y101.543 E0.00669
G1 X127.641 Y101.779 E0.00810
G1 X131.482 Y97.937 E0.17836
G1 X132.063 Y97.937 E0.01905
G1 X127.731 Y102.269 E0.20114
G1 X127.731 Y102.718 E0.01472
G1 X127.711 Y102.869 E0.00502
G1 X132.826 Y97.754 E0.23751
M204 S1000
G1 F5760
G1 X131.274 Y99.306 E-0.76000
G1 E-0.04000 F2100.00000
G1 Z1.000 F7200.000
G1 Z1.500 F7200.000
G1 X127.147 Y101.352 F7200.000
G1 Z1.000 F7200.000
G1 E0.80000 F2100.00000
M204 S800
G1 F983
G1 X127.350 Y101.859 E0.01779
G1 X127.425 Y102.287 E0.01415
G1 X127.425 Y102.718 E0.01403
G1 X127.329 Y103.206 E0.01621
G1 X127.114 Y103.708 E0.01779
G1 X126.865 Y104.064 E0.01415
G1 X126.565 Y104.364 E0.01382
G1 X126.229 Y104.600 E0.01337
G1 X126.016 Y104.711 E0.00781
G1 X125.630 Y104.851 E0.01337
G1 X125.212 Y104.925 E0.01382
G1 X124.802 Y104.925 E0.01337
G1 X124.564 Y104.893 E0.00781
G1 X124.167 Y104.787 E0.01337
G1 X123.783 Y104.608 E0.01382
G1 X123.435 Y104.364 E0.01382
G1 X123.145 Y104.074 E0.01337
G1 X122.999 Y103.884 E0.00781
G1 X122.794 Y103.528 E0.01337
G1 X122.648 Y103.130 E0.01382
G1 X122.576 Y102.718 E0.01361
G1 X122.570 Y102.419 E0.00973
G1 X122.603 Y102.074 E0.01131
G1 X122.712 Y101.667 E0.01372
G1 X122.892 Y101.282 E0.01382
G1 X123.139 Y100.930 E0.01403
G1 X123.498 Y100.585 E0.01621
G1 X123.962 Y100.297 E0.01779
G1 X124.376 Y100.146 E0.01436
G1 X124.868 Y100.069 E0.01621
G1 X125.413 Y100.099 E0.01779
G1 X125.833 Y100.212 E0.01415
G1 X126.217 Y100.391 E0.01382
G1 X126.565 Y100.635 E0.01382
G1 X126.869 Y100.939 E0.01403
G1 X127.113 Y101.303 E0.01426
M204 S1000
G1 X126.775 Y101.529 F7200.000
M204 S800
G1 F1200
G1 X126.956 Y101.972 E0.01556
G1 X127.018 Y102.323 E0.01162
G1 X127.018 Y102.678 E0.01158
G1 X126.938 Y103.086 E0.01352
G1 X126.757 Y103.510 E0.01502
G1 X126.552 Y103.802 E0.01162
G1 X126.302 Y104.051 E0.01150
G1 X126.017 Y104.251 E0.01134
G1 X125.852 Y104.337 E0.00608
G1 X125.524 Y104.456 E0.01134
G1 X125.177 Y104.518 E0.01150
G1 X124.828 Y104.518 E0.01134
G1 X124.643 Y104.493 E0.00608
G1 X124.307 Y104.403 E0.01134
G1 X123.987 Y104.254 E0.01150
G1 X123.698 Y104.051 E0.01150
G1 X123.452 Y103.805 E0.01134
G1 X123.338 Y103.657 E0.00608
G1 X123.164 Y103.356 E0.01134
G1 X123.043 Y103.024 E0.01150
G1 X122.982 Y102.678 E0.01143
G1 X122.977 Y102.435 E0.00793
G1 X123.005 Y102.147 E0.00943
G1 X123.096 Y101.807 E0.01147
G1 X123.246 Y101.487 E0.01150
G1 X123.449 Y101.196 E0.01158
G1 X123.749 Y100.908 E0.01352
G1 X124.140 Y100.665 E0.01502
G1 X124.478 Y100.542 E0.01169
G1 X124.888 Y100.478 E0.01352
G1 X125.348 Y100.504 E0.01502
G1 X125.693 Y100.596 E0.01162
G1 X126.013 Y100.745 E0.01150
G1 X126.302 Y100.948 E0.01150
G1 X126.553 Y101.199 E0.01158
G1 X126.742 Y101.480 E0.01101
M204 S1000
G1 X127.175 Y101.544 F7200.000
G1 F5760
G1 X126.956 Y101.972 E-0.18589
G1 F5760
G1 X127.018 Y102.323 E-0.12356
G1 F5760
G1 X127.018 Y102.678 E-0.12309
G1 F5760
G1 X126.938 Y103.086 E-0.14377
G1 F5760
G1 X126.757 Y103.510 E-0.15970
G1 F5760
G1 X126.717 Y103.566 E-0.02400
G1 E-0.04000 F2100.00000
G1 Z1.500 F7200.000
G1 X134.368 Y97.632 F7200.000
G1 Z1.000 F7200.000
G1 E0.80000 F2100.00000
M204 S800
G1 F1967
G1 X134.368 Y112.368 E0.48001
G1 X115.632 Y112.368 E0.61031
G1 X115.632 Y97.632 E0.48001
G1 X134.308 Y97.632 E0.60835
M204 S1000
G1 X134.775 Y97.225 F7200.000
M204 S800
G1 F1800
G1 X134.775 Y112.775 E0.50653
G1 X115.225 Y112.775 E0.63683
G1 X115.225 Y97.225 E0.50653
G1 X134.715 Y97.225 E0.63487
M204 S1000
G1 X134.657 Y97.607 F7200.000
G1 F5760
G1 X134.723 Y99.419 E-0.76000
G1 E-0.04000 F2100.00000
G1 Z1.500 F7200.000
G1 X134.246 Y98.584 F7200.000
G1 Z1.000 F7200.000
G1 E0.80000 F2100.00000
M204 S2000
G1 F1967
G1 X133.600 Y97.937 E0.03001
G1 X133.019 Y97.937 E0.01905
G1 X134.063 Y98.981 E0.04844
G1 X134.063 Y99.561 E0.01905
G1 X132.439 Y97.937 E0.07537
G1 X131.859 Y97.937 E0.01905
G1 X134.063 Y100.141 E0.10231
G1 X134.063 Y100.721 E0.01905
G1 X131.279 Y97.937 E0.12924
G1 X130.699 Y97.937 E0.01905
G1 X134.063 Y101.301 E0.15617
G1 X134.063 Y101.881 E0.01905
G1 X130.119 Y97.937 E0.18311
G1 X129.539 Y97.937 E0.01905
G1 X134.063 Y102.461 E0.21004
G1 X134.063 Y103.041 E0.01905
G1 X128.959 Y97.937 E0.23698
G1 X128.379 Y97.937 E0.01905
G1 X134.063 Y103.621 E0.26391
G1 X134.063 Y104.201 E0.01905
G1 X127.799 Y97.937 E0.29084
G1 X127.219 Y97.937 E0.01905
G1 X134.063 Y104.781 E0.31778
G1 X134.063 Y105.361 E0.01905
G1 X126.639 Y97.937 E0.34471
G1 X126.058 Y97.937 E0.01905
G1 X134.063 Y105.942 E0.37165
G1 X134.063 Y106.522 E0.01905
G1 X125.478 Y97.937 E0.39858
G1 X124.898 Y97.937 E0.01905
G1 X134.063 Y107.102 E0.42551
G1 X134.063 Y107.682 E0.01905
G1 X124.318 Y97.937 E0.45245
G1 X123.738 Y97.937 E0.01905
G1 X125.647 Y99.846 E0.08862
G1 X125.461 Y99.796 E0.00630
G1 X124.991 Y99.770 E0.01547
G1 X123.158 Y97.937 E0.08510
G1 X122.578 Y97.937 E0.01905
G1 X124.464 Y99.823 E0.08756
G1 X124.299 Y99.849 E0.00546
G1 X124.013 Y99.953 E0.00999
G1 X121.998 Y97.937 E0.09358
G1 X121.418 Y97.937 E0.01905
G1 X123.626 Y100.146 E0.10253
G1 X123.275 Y100.375 E0.01376
G1 X120.838 Y97.937 E0.11318
G1 X120.258 Y97.937 E0.01905
G1 X122.979 Y100.659 E0.12638
G1 X122.906 Y100.730 E0.00336
G1 X122.726 Y100.986 E0.01027
G1 X119.678 Y97.937 E0.14156
G1 X119.097 Y97.937 E0.01905
G1 X122.519 Y101.359 E0.15887
G1 X122.424 Y101.562 E0.00736
G1 X122.365 Y101.785 E0.00757
G1 X118.517 Y97.937 E0.17864
G1 X117.937 Y97.937 E0.01905
G1 X122.277 Y102.277 E0.20149
G1 X122.271 Y102.748 E0.01547
G1 X122.293 Y102.873 E0.00418
G1 X117.357 Y97.937 E0.22919
G1 X116.777 Y97.937 E0.01905
G1 X130.902 Y112.063 E0.65586
G1 X131.482 Y112.063 E0.01905
G1 X124.630 Y105.210 E0.31817
G1 X124.782 Y105.230 E0.00502
G1 X125.230 Y105.230 E0.01472
G1 X132.063 Y112.063 E0.31725
G1 X132.643 Y112.063 E0.01905
G1 X125.722 Y105.142 E0.32132
G1 X126.147 Y104.987 E0.01484
G1 X133.223 Y112.063 E0.32855
G1 X133.803 Y112.063 E0.01905
G1 X126.513 Y104.773 E0.33846
G1 X126.762 Y104.599 E0.00996
G1 X126.841 Y104.520 E0.00366
G1 X134.063 Y111.742 E0.33533
G1 X134.063 Y111.162 E0.01905
G1 X127.125 Y104.225 E0.32211
G1 X127.364 Y103.884 E0.01367
G1 X134.063 Y110.582 E0.31102
G1 X134.063 Y110.002 E0.01905
G1 X127.543 Y103.482 E0.30272
G1 X127.622 Y103.297 E0.00663
G1 X127.674 Y103.034 E0.00881
G1 X134.063 Y109.422 E0.29662
G1 X134.063 Y108.842 E0.01905
G1 X127.731 Y102.510 E0.29401
G1 X127.731 Y102.261 E0.00818
G1 X127.660 Y101.859 E0.01339
G1 X134.246 Y108.445 E0.30580
M204 S1000
G1 F5760
G1 X132.694 Y106.893 E-0.76000
G1 E-0.04000 F2100.00000
G1 Z1.500 F7200.000
G1 X130.506 Y112.246 F7200.000
G1 Z1.000 F7200.000
G1 E0.80000 F2100.00000
M204 S2000
G1 F1967
G1 X116.197 Y97.937 E0.66436
G1 X115.937 Y97.937 E0.00853
G1 X115.937 Y98.258 E0.01052
G1 X129.742 Y112.063 E0.64098
G1 X129.162 Y112.063 E0.01905
G1 X115.937 Y98.838 E0.61405
G1 X115.937 Y99.418 E0.01905
G1 X128.582 Y112.063 E0.58711
G1 X128.002 Y112.063 E0.01905
G1 X115.937 Y99.998 E0.56018
G1 X115.937 Y100.578 E0.01905
G1 X127.422 Y112.063 E0.53325
G1 X126.842 Y112.063 E0.01905
G1 X115.937 Y101.158 E0.50631
G1 X115.937 Y101.738 E0.01905
G1 X126.262 Y112.063 E0.47938
G1 X125.682 Y112.063 E0.01905
G1 X115.937 Y102.318 E0.45244
G1 X115.937 Y102.898 E0.01905
G1 X125.102 Y112.063 E0.42551
G1 X124.522 Y112.063 E0.01905
G1 X115.937 Y103.478 E0.39858
G1 X115.937 Y104.059 E0.01905
G1 X123.941 Y112.063 E0.37164
G1 X123.361 Y112.063 E0.01905
G1 X115.937 Y104.639 E0.34471
G1 X115.937 Y105.219 E0.01905
G1 X122.781 Y112.063 E0.31777
G1 X122.201 Y112.063 E0.01905
G1 X115.937 Y105.799 E0.29084
G1 X115.937 Y106.379 E0.01905
G1 X121.621 Y112.063 E0.26391
G1 X121.041 Y112.063 E0.01905
G1 X115.937 Y106.959 E0.23697
G1 X115.937 Y107.539 E0.01905
G1 X120.461 Y112.063 E0.21004
G1 X119.881 Y112.063 E0.01905
G1 X115.937 Y108.119 E0.18310
G1 X115.937 Y108.699 E0.01905
G1 X119.301 Y112.063 E0.15617
G1 X118.721 Y112.063 E0.01905
G1 X115.937 Y109.279 E0.12924
G1 X115.937 Y109.859 E0.01905
G1 X118.141 Y112.063 E0.10230
G1 X117.561 Y112.063 E0.01905
G1 X115.937 Y110.439 E0.07537
G1 X115.937 Y111.020 E0.01905
G1 X116.980 Y112.063 E0.04843
G1 X116.400 Y112.063 E0.01905
G1 X115.754 Y111.416 E0.03000
M204 S1000
G1 F5760
G1 X116.400 Y112.063 E-0.31653
G1 F5760
G1 X116.980 Y112.063 E-0.20091
G1 F5760
G1 X116.485 Y111.567 E-0.24256
G1 E-0.04000 F2100.00000
G1 Z1.500 F7200.000
G1 X123.435 Y104.364 F7200.000
G1 Z1.200 F7200.000
G1 E0.80000 F2100.00000
M204 S800
G1 F990
G1 X123.145 Y104.074 E0.01337
G1 X122.999 Y103.884 E0.00781
G1 X122.794 Y103.528 E0.01337
G1 X122.648 Y103.130 E0.01382
G1 X122.575 Y102.712 E0.01382
G1 X122.575 Y102.301 E0.01337
G1 X122.606 Y102.063 E0.00781
G1 X122.712 Y101.667 E0.01337
G1 X122.892 Y101.282 E0.01382
G1 X123.137 Y100.931 E0.01395
G1 X123.466 Y100.611 E0.01497
G1 X123.773 Y100.398 E0.01215
G1 X123.984 Y100.288 E0.00776
G1 X124.374 Y100.147 E0.01350
G1 X124.827 Y100.073 E0.01497
G1 X125.200 Y100.075 E0.01215
G1 X125.436 Y100.106 E0.00776
G1 X125.833 Y100.212 E0.01337
G1 X126.217 Y100.391 E0.01382
G1 X126.565 Y100.635 E0.01382
G1 X126.865 Y100.935 E0.01382
G1 X127.111 Y101.286 E0.01395
G1 X127.300 Y101.704 E0.01497
G1 X127.394 Y102.065 E0.01215
G1 X127.425 Y102.301 E0.00776
G1 X127.425 Y102.698 E0.01292
G1 X127.394 Y102.936 E0.00781
G1 X127.288 Y103.332 E0.01337
G1 X127.108 Y103.717 E0.01382
G1 X126.865 Y104.064 E0.01382
G1 X126.565 Y104.364 E0.01382
G1 X126.229 Y104.600 E0.01337
G1 X126.016 Y104.711 E0.00781
G1 X125.630 Y104.851 E0.01337
G1 X125.212 Y104.925 E0.01382
G1 X124.802 Y104.925 E0.01337
G1 X124.564 Y104.893 E0.00781
G1 X124.167 Y104.787 E0.01337
G1 X123.783 Y104.608 E0.01382
G1 X123.484 Y104.399 E0.01187
M204 S1000
G1 X123.452 Y103.805 F7200.000
M204 S800
G1 F1200
G1 X123.338 Y103.657 E0.00608
G1 X123.164 Y103.356 E0.01134
G1 X123.043 Y103.024 E0.01150
G1 X122.982 Y102.676 E0.01150
G1 X122.982 Y102.328 E0.01134
G1 X123.006 Y102.143 E0.00608
G1 X123.096 Y101.807 E0.01134
G1 X123.246 Y101.487 E0.01150
G1 X123.449 Y101.196 E0.01155
G1 X123.726 Y100.926 E0.01261
G1 X123.984 Y100.748 E0.01020
G1 X124.148 Y100.662 E0.00606
G1 X124.477 Y100.542 E0.01139
G1 X124.859 Y100.480 E0.01261
G1 X125.172 Y100.481 E0.01020
G1 X125.357 Y100.506 E0.00606
G1 X125.693 Y100.596 E0.01134
G1 X126.013 Y100.745 E0.01150
G1 X126.302 Y100.948 E0.01150
G1 X126.552 Y101.197 E0.01150
G1 X126.755 Y101.488 E0.01155
G1 X126.914 Y101.841 E0.01261
G1 X126.994 Y102.144 E0.01020
G1 X127.018 Y102.328 E0.00606
G1 X127.018 Y102.671 E0.01118
G1 X126.994 Y102.856 E0.00608
G1 X126.904 Y103.192 E0.01134
G1 X126.754 Y103.512 E0.01150
G1 X126.552 Y103.802 E0.01150
G1 X126.302 Y104.051 E0.01150
G1 X126.017 Y104.251 E0.01134
G1 X125.852 Y104.337 E0.00608
G1 X125.524 Y104.456 E0.01134
G1 X125.177 Y104.518 E0.01150
G1 X124.828 Y104.518 E0.01134
G1 X124.643 Y104.493 E0.00608
G1 X124.307 Y104.403 E0.01134
G1 X123.987 Y104.254 E0.01150
G1 X123.698 Y104.051 E0.01150
G1 X123.494 Y103.848 E0.00939
M204 S1000
G1 X123.269 Y103.843 F7200.000
G1 F5760
G1 X123.338 Y103.657 E-0.08525
G1 F5760
G1 X123.164 Y103.356 E-0.12060
G1 F5760
G1 X123.043 Y103.024 E-0.12231
G1 F5760
G1 X122.982 Y102.676 E-0.12231
G1 F5760
G1 X122.982 Y102.328 E-0.12060
G1 F5760
G1 X123.006 Y102.143 E-0.06460
G1 F5760
G1 X123.096 Y101.807 E-0.12060
G1 F5760
G1 X123.101 Y101.797 E-0.00374
G1 E-0.04000 F2100.00000
G1 Z1.700 F7200.000
G1 X115.632 Y97.632 F7200.000
G1 Z1.200 F7200.000
G1 E0.80000 F2100.00000
M204 S800
G1 F1979
G1 X134.368 Y97.632 E0.61031
G1 X134.368 Y112.368 E0.48001
G1 X115.632 Y112.368 E0.61031
G1 X115.632 Y97.692 E0.47806
M204 S1000
G1 X115.225 Y97.225 F7200.000
M204 S800
G1 F1800
G1 X134.775 Y97.225 E0.63683
G1 X134.775 Y112.775 E0.50653
G1 X115.225 Y112.775 E0.63683
G1 X115.225 Y97.285 E0.50458
M204 S1000
G1 X115.615 Y97.314 F7200.000
G1 F5760
G1 X117.419 Y97.278 E-0.76000
G1 E-0.04000 F2100.00000
G1 Z1.700 F7200.000
G1 X115.754 Y98.584 F7200.000
G1 Z1.200 F7200.000
G1 E0.80000 F2100.00000
M204 S2000
G1 F1979
G1 X116.400 Y97.937 E0.03000
G1 X116.980 Y97.937 E0.01905
G1 X115.937 Y98.980 E0.04843
G1 X115.937 Y99.561 E0.01905
G1 X117.561 Y97.937 E0.07537
G1 X118.141 Y97.937 E0.01905
G1 X115.937 Y100.141 E0.10230
G1 X115.937 Y100.721 E0.01905
G1 X118.721 Y97.937 E0.12924
G1 X119.301 Y97.937 E0.01905
G1 X115.937 Y101.301 E0.15617
G1 X115.937 Y101.881 E0.01905
G1 X119.881 Y97.937 E0.18310
G1 X120.461 Y97.937 E0.01905
G1 X115.937 Y102.461 E0.21004
G1 X115.937 Y103.041 E0.01905
G1 X121.041 Y97.937 E0.23697
G1 X121.621 Y97.937 E0.01905
G1 X115.937 Y103.621 E0.26391
G1 X115.937 Y104.201 E0.01905
G1 X122.201 Y97.937 E0.29084
G1 X122.781 Y97.937 E0.01905
G1 X115.937 Y104.781 E0.31777
G1 X115.937 Y105.361 E0.01905
G1 X123.361 Y97.937 E0.34471
G1 X123.941 Y97.937 E0.01905
G1 X115.937 Y105.941 E0.37164
G1 X115.937 Y106.522 E0.01905
G1 X124.522 Y97.937 E0.39858
G1 X125.102 Y97.937 E0.01905
G1 X115.754 Y107.285 E0.43402
M204 S1000
G1 F5760
G1 X117.306 Y105.733 E-0.76000
G1 E-0.04000 F2100.00000
G1 Z1.700 F7200.000
G1 X133.416 Y112.246 F7200.000
G1 Z1.200 F7200.000
G1 E0.80000 F2100.00000
M204 S2000
G1 F1979
G1 X134.063 Y111.600 E0.03001
G1 X134.063 Y111.019 E0.01905
G1 X133.019 Y112.063 E0.04844
G1 X132.439 Y112.063 E0.01905
G1 X134.063 Y110.439 E0.07537
G1 X134.063 Y109.859 E0.01905
G1 X131.859 Y112.063 E0.10231
G1 X131.279 Y112.063 E0.01905
G1 X134.063 Y109.279 E0.12924
G1 X134.063 Y108.699 E0.01905
G1 X130.699 Y112.063 E0.15617
G1 X130.119 Y112.063 E0.01905
G1 X134.063 Y108.119 E0.18311
G1 X134.063 Y107.539 E0.01905
G1 X129.539 Y112.063 E0.21004
G1 X128.959 Y112.063 E0.01905
G1 X134.063 Y106.959 E0.23698
G1 X134.063 Y106.379 E0.01905
G1 X128.379 Y112.063 E0.26391
G1 X127.799 Y112.063 E0.01905
G1 X134.063 Y105.799 E0.29084
G1 X134.063 Y105.219 E0.01905
G1 X127.219 Y112.063 E0.31778
G1 X126.639 Y112.063 E0.01905
G1 X134.063 Y104.639 E0.34471
G1 X134.063 Y104.058 E0.01905
G1 X126.058 Y112.063 E0.37165
G1 X125.478 Y112.063 E0.01905
G1 X134.063 Y103.478 E0.39858
G1 X134.063 Y102.898 E0.01905
G1 X124.898 Y112.063 E0.42551
G1 X124.318 Y112.063 E0.01905
G1 X134.063 Y102.318 E0.45245
G1 X134.063 Y101.738 E0.01905
G1 X123.738 Y112.063 E0.47938
G1 X123.158 Y112.063 E0.01905
G1 X134.063 Y101.158 E0.50632
G1 X134.063 Y100.578 E0.01905
G1 X122.578 Y112.063 E0.53325
G1 X121.998 Y112.063 E0.01905
G1 X134.063 Y99.998 E0.56018
G1 X134.063 Y99.418 E0.01905
G1 X121.418 Y112.063 E0.58712
G1 X120.838 Y112.063 E0.01905
G1 X134.063 Y98.838 E0.61405
G1 X134.063 Y98.258 E0.01905
G1 X120.258 Y112.063 E0.64099
G1 X119.678 Y112.063 E0.01905
G1 X133.803 Y97.937 E0.65586
G1 X133.223 Y97.937 E0.01905
G1 X119.097 Y112.063 E0.65586
G1 X118.517 Y112.063 E0.01905
G1 X125.374 Y105.206 E0.31835
G1 X125.239 Y105.230 E0.00450
G1 X124.771 Y105.229 E0.01535
G1 X117.937 Y112.063 E0.31731
G1 X117.357 Y112.063 E0.01905
G1 X124.285 Y105.135 E0.32167
G1 X124.063 Y105.075 E0.00756
G1 X123.859 Y104.980 E0.00736
G1 X116.777 Y112.063 E0.32884
G1 X116.197 Y112.063 E0.01905
G1 X123.487 Y104.773 E0.33846
G1 X123.238 Y104.599 E0.00996
G1 X123.159 Y104.520 E0.00366
G1 X115.937 Y111.742 E0.33532
G1 X115.937 Y111.162 E0.01905
G1 X122.875 Y104.224 E0.32214
G1 X122.744 Y104.054 E0.00705
G1 X122.642 Y103.877 E0.00670
G1 X115.937 Y110.582 E0.31132
G1 X115.937 Y110.002 E0.01905
G1 X122.453 Y103.486 E0.30254
G1 X122.352 Y103.209 E0.00968
G1 X122.322 Y103.037 E0.00573
G1 X115.937 Y109.422 E0.29645
G1 X115.937 Y108.842 E0.01905
G1 X122.269 Y102.510 E0.29401
G1 X122.269 Y102.281 E0.00750
G1 X122.306 Y102.004 E0.00919
G1 X122.346 Y101.853 E0.00513
G1 X115.937 Y108.262 E0.29758
G1 X115.937 Y107.682 E0.01905
G1 X125.682 Y97.937 E0.45244
G1 X126.262 Y97.937 E0.01905
G1 X124.360 Y99.840 E0.08832
G1 X124.803 Y99.767 E0.01476
G1 X125.011 Y99.768 E0.00682
G1 X126.842 Y97.937 E0.08501
G1 X127.422 Y97.937 E0.01905
G1 X125.542 Y99.818 E0.08731
G1 X125.991 Y99.949 E0.01536
G1 X128.002 Y97.937 E0.09339
G1 X128.582 Y97.937 E0.01905
G1 X126.384 Y100.135 E0.10206
G1 X126.725 Y100.374 E0.01367
G1 X129.162 Y97.937 E0.11315
G1 X129.742 Y97.937 E0.01905
G1 X127.021 Y100.659 E0.12636
G1 X127.100 Y100.738 E0.00366
G1 X127.274 Y100.986 E0.00996
G1 X130.322 Y97.937 E0.14156
G1 X130.902 Y97.937 E0.01905
G1 X127.479 Y101.360 E0.15894
G1 X127.588 Y101.602 E0.00871
G1 X127.636 Y101.784 E0.00617
G1 X131.482 Y97.937 E0.17860
G1 X132.063 Y97.937 E0.01905
G1 X127.729 Y102.271 E0.20121
G1 X127.731 Y102.718 E0.01468
G1 X127.711 Y102.869 E0.00502
G1 X132.826 Y97.754 E0.23751
M204 S1000
G1 F5760
G1 X131.274 Y99.306 E-0.76000
G1 E-0.04000 F2100.00000
G1 Z1.700 F7200.000
G1 X127.108 Y101.282 F7200.000
G1 Z1.400 F7200.000
G1 E0.80000 F2100.00000
M204 S800
G1 F1200
G1 X127.288 Y101.667 E0.01382
G1 X127.394 Y102.063 E0.01337
G1 X127.425 Y102.301 E0.00781
G1 X127.425 Y102.698 E0.01292
G1 X127.394 Y102.936 E0.00781
G1 X127.288 Y103.332 E0.01337
G1 X127.108 Y103.717 E0.01382
G1 X126.865 Y104.064 E0.01382
G1 X126.565 Y104.364 E0.01382
G1 X126.229 Y104.600 E0.01337
G1 X126.016 Y104.711 E0.00781
G1 X125.630 Y104.851 E0.01337
G1 X125.212 Y104.925 E0.01382
G1 X124.802 Y104.925 E0.01337
G1 X124.564 Y104.893 E0.00781
G1 X124.167 Y104.787 E0.01337
G1 X123.783 Y104.608 E0.01382
G1 X123.435 Y104.364 E0.01382
G1 X123.145 Y104.074 E0.01337
G1 X122.999 Y103.884 E0.00781
G1 X122.794 Y103.528 E0.01337
G1 X122.648 Y103.130 E0.01382
G1 X122.577 Y102.724 E0.01343
G1 X122.567 Y102.472 E0.00819
G1 X122.603 Y102.076 E0.01295
G1 X122.712 Y101.667 E0.01381
G1 X122.892 Y101.282 E0.01382
G1 X123.136 Y100.934 E0.01387
G1 X123.446 Y100.627 E0.01420
G1 X123.772 Y100.399 E0.01296
G1 X123.984 Y100.288 E0.00780
G1 X124.371 Y100.148 E0.01342
G1 X124.801 Y100.074 E0.01420
G1 X125.199 Y100.074 E0.01296
G1 X125.436 Y100.106 E0.00780
G1 X125.833 Y100.212 E0.01337
G1 X126.217 Y100.391 E0.01382
G1 X126.565 Y100.635 E0.01382
G1 X126.865 Y100.935 E0.01382
G1 X127.074 Y101.233 E0.01187
M204 S1000
G1 X126.740 Y101.467 F7200.000
M204 S800
G1 F1200
G1 X126.904 Y101.807 E0.01229
G1 X126.994 Y102.143 E0.01134
G1 X127.018 Y102.328 E0.00608
G1 X127.018 Y102.671 E0.01118
G1 X126.994 Y102.856 E0.00608
G1 X126.904 Y103.192 E0.01134
G1 X126.754 Y103.512 E0.01150
G1 X126.552 Y103.802 E0.01150
G1 X126.302 Y104.051 E0.01150
G1 X126.017 Y104.251 E0.01134
G1 X125.852 Y104.337 E0.00608
G1 X125.524 Y104.456 E0.01134
G1 X125.177 Y104.518 E0.01150
G1 X124.828 Y104.518 E0.01134
G1 X124.643 Y104.493 E0.00608
G1 X124.307 Y104.403 E0.01134
G1 X123.987 Y104.254 E0.01150
G1 X123.698 Y104.051 E0.01150
G1 X123.452 Y103.805 E0.01134
G1 X123.338 Y103.657 E0.00608
G1 X123.164 Y103.356 E0.01134
G1 X123.043 Y103.024 E0.01150
G1 X122.983 Y102.680 E0.01136
G1 X122.975 Y102.483 E0.00645
G1 X123.005 Y102.148 E0.01096
G1 X123.096 Y101.807 E0.01150
G1 X123.246 Y101.487 E0.01150
G1 X123.448 Y101.197 E0.01152
G1 X123.707 Y100.940 E0.01187
G1 X123.983 Y100.748 E0.01096
G1 X124.148 Y100.662 E0.00607
G1 X124.476 Y100.543 E0.01136
G1 X124.835 Y100.481 E0.01187
G1 X125.172 Y100.481 E0.01096
G1 X125.357 Y100.506 E0.00607
G1 X125.693 Y100.596 E0.01134
G1 X126.013 Y100.745 E0.01150
G1 X126.302 Y100.948 E0.01150
G1 X126.552 Y101.197 E0.01150
G1 X126.706 Y101.417 E0.00875
M204 S1000
G1 X127.118 Y101.463 F7200.000
G1 F5760
G1 X126.904 Y101.807 E-0.15118
G1 F5760
G1 X126.994 Y102.143 E-0.12060
G1 F5760
G1 X127.018 Y102.328 E-0.06460
G1 F5760
G1 X127.018 Y102.671 E-0.11889
G1 F5760
G1 X126.994 Y102.856 E-0.06460
G1 F5760
G1 X126.904 Y103.192 E-0.12060
G1 F5760
G1 X126.758 Y103.505 E-0.11953
G1 E-0.04000 F2100.00000
G1 Z1.900 F7200.000
G1 X134.368 Y97.632 F7200.000
G1 Z1.400 F7200.000
G1 E0.80000 F2100.00000
M204 S800
G1 F2400
G1 X134.368 Y112.368 E0.48001
G1 X115.632 Y112.368 E0.61031
G1 X115.632 Y97.632 E0.48001
G1 X134.308 Y97.632 E0.60835
M204 S1000
G1 X134.775 Y97.225 F7200.000
M204 S800
G1 F1800
G1 X134.775 Y112.775 E0.50653
G1 X115.225 Y112.775 E0.63683
G1 X115.225 Y97.225 E0.50653
G1 X134.715 Y97.225 E0.63487
M204 S1000
G1 X134.657 Y97.607 F7200.000
G1 F5760
G1 X134.723 Y99.419 E-0.76000
G1 E-0.04000 F2100.00000
G1 Z1.900 F7200.000
G1 X134.248 Y98.479 F7200.000
G1 Z1.400 F7200.000
G1 E0.80000 F2100.00000
M204 S2000
G1 F1800
G1 X133.682 Y97.912 E0.02295
G1 X133.173 Y97.912 E0.01457
G1 X134.088 Y98.827 E0.03704
G1 X134.088 Y99.336 E0.01457
G1 X132.664 Y97.912 E0.05764
G1 X132.156 Y97.912 E0.01457
G1 X134.088 Y99.844 E0.07824
G1 X134.088 Y100.353 E0.01457
G1 X131.647 Y97.912 E0.09884
G1 X131.138 Y97.912 E0.01457
G1 X134.088 Y100.862 E0.11944
G1 X134.088 Y101.371 E0.01457
G1 X130.629 Y97.912 E0.14004
G1 X130.121 Y97.912 E0.01457
G1 X134.088 Y101.879 E0.16064
G1 X134.088 Y102.388 E0.01457
G1 X129.612 Y97.912 E0.18124
G1 X129.103 Y97.912 E0.01457
G1 X134.088 Y102.897 E0.20184
G1 X134.088 Y103.405 E0.01457
G1 X128.595 Y97.912 E0.22244
G1 X128.086 Y97.912 E0.01457
G1 X134.088 Y103.914 E0.24303
G1 X134.088 Y104.423 E0.01457
G1 X127.577 Y97.912 E0.26363
G1 X127.069 Y97.912 E0.01457
G1 X134.088 Y104.931 E0.28423
G1 X134.088 Y105.440 E0.01457
G1 X126.560 Y97.912 E0.30483
G1 X126.051 Y97.912 E0.01457
G1 X134.088 Y105.949 E0.32543
G1 X134.088 Y106.457 E0.01457
G1 X125.543 Y97.912 E0.34603
G1 X125.034 Y97.912 E0.01457
G1 X134.088 Y106.966 E0.36663
G1 X134.088 Y107.475 E0.01457
G1 X124.525 Y97.912 E0.38723
G1 X124.017 Y97.912 E0.01457
G1 X134.088 Y107.983 E0.40783
G1 X134.088 Y108.492 E0.01457
G1 X127.679 Y102.084 E0.25951
G1 X127.706 Y102.283 E0.00575
G1 X127.706 Y102.619 E0.00962
G1 X134.088 Y109.001 E0.25844
G1 X134.088 Y109.510 E0.01457
G1 X127.648 Y103.070 E0.26077
G1 X127.535 Y103.465 E0.01178
G1 X134.088 Y110.018 E0.26536
G1 X134.088 Y110.527 E0.01457
G1 X127.373 Y103.812 E0.27191
G1 X127.170 Y104.118 E0.01051
G1 X134.088 Y111.036 E0.28014
G1 X134.088 Y111.544 E0.01457
G1 X126.935 Y104.391 E0.28967
G1 X126.669 Y104.634 E0.01031
G1 X134.088 Y112.053 E0.30043
G1 X134.088 Y112.088 E0.00099
G1 X133.614 Y112.088 E0.01357
G1 X126.369 Y104.843 E0.29338
G1 X126.023 Y105.006 E0.01094
G1 X133.105 Y112.088 E0.28676
G1 X132.596 Y112.088 E0.01457
G1 X125.642 Y105.134 E0.28161
G1 X125.205 Y105.205 E0.01268
G1 X132.088 Y112.088 E0.27871
G1 X131.579 Y112.088 E0.01457
G1 X124.683 Y105.192 E0.27924
G1 X124.509 Y105.169 E0.00503
G1 X124.002 Y105.019 E0.01514
G1 X131.070 Y112.088 E0.28623
G1 X130.562 Y112.088 E0.01457
G1 X116.386 Y97.912 E0.57403
G1 X116.895 Y97.912 E0.01457
G1 X122.486 Y103.504 E0.22643
G1 X122.377 Y103.202 E0.00918
G1 X122.309 Y102.818 E0.01119
G1 X117.404 Y97.912 E0.19864
G1 X117.912 Y97.912 E0.01457
G1 X122.301 Y102.301 E0.17773
G1 X122.326 Y102.027 E0.00788
G1 X122.370 Y101.861 E0.00492
G1 X118.421 Y97.912 E0.15992
G1 X118.930 Y97.912 E0.01457
G1 X122.492 Y101.475 E0.14428
G1 X122.656 Y101.130 E0.01094
G1 X119.438 Y97.912 E0.13030
G1 X119.947 Y97.912 E0.01457
G1 X122.866 Y100.831 E0.11819
G1 X122.921 Y100.752 E0.00275
G1 X123.109 Y100.566 E0.00759
G1 X120.456 Y97.912 E0.10744
G1 X120.964 Y97.912 E0.01457
G1 X123.382 Y100.329 E0.09788
G1 X123.688 Y100.127 E0.01051
G1 X121.473 Y97.912 E0.08967
G1 X121.982 Y97.912 E0.01457
G1 X124.039 Y99.970 E0.08332
G1 X124.299 Y99.876 E0.00791
G1 X124.431 Y99.853 E0.00383
G1 X122.490 Y97.912 E0.07858
G1 X122.999 Y97.912 E0.01457
G1 X124.880 Y99.794 E0.07618
G1 X125.217 Y99.794 E0.00965
G1 X125.416 Y99.820 E0.00573
G1 X123.347 Y97.752 E0.08377
M204 S1000
G1 F5760
G1 X124.899 Y99.303 E-0.76000
G1 E-0.04000 F2100.00000
G1 Z1.900 F7200.000
G1 X130.214 Y112.248 F7200.000
G1 Z1.400 F7200.000
G1 E0.80000 F2100.00000
M204 S2000
G1 F1800
G1 X115.912 Y97.947 E0.57913
G1 X115.912 Y98.456 E0.01457
G1 X129.544 Y112.088 E0.55202
G1 X129.035 Y112.088 E0.01457
G1 X115.912 Y98.965 E0.53142
G1 X115.912 Y99.473 E0.01457
G1 X128.527 Y112.088 E0.51082
G1 X128.018 Y112.088 E0.01457
G1 X115.912 Y99.982 E0.49022
G1 X115.912 Y100.491 E0.01457
G1 X127.509 Y112.088 E0.46962
G1 X127.001 Y112.088 E0.01457
G1 X115.912 Y100.999 E0.44902
G1 X115.912 Y101.508 E0.01457
G1 X126.492 Y112.088 E0.42842
G1 X125.983 Y112.088 E0.01457
G1 X115.912 Y102.017 E0.40783
G1 X115.912 Y102.525 E0.01457
G1 X125.475 Y112.088 E0.38723
G1 X124.966 Y112.088 E0.01457
G1 X115.912 Y103.034 E0.36663
G1 X115.912 Y103.543 E0.01457
G1 X124.457 Y112.088 E0.34603
G1 X123.949 Y112.088 E0.01457
G1 X115.912 Y104.051 E0.32543
G1 X115.912 Y104.560 E0.01457
G1 X123.440 Y112.088 E0.30483
G1 X122.931 Y112.088 E0.01457
G1 X115.912 Y105.069 E0.28423
G1 X115.912 Y105.577 E0.01457
G1 X122.423 Y112.088 E0.26363
G1 X121.914 Y112.088 E0.01457
G1 X115.912 Y106.086 E0.24303
G1 X115.912 Y106.595 E0.01457
G1 X121.405 Y112.088 E0.22243
G1 X120.896 Y112.088 E0.01457
G1 X115.912 Y107.104 E0.20183
G1 X115.912 Y107.612 E0.01457
G1 X120.388 Y112.088 E0.18123
G1 X119.879 Y112.088 E0.01457
G1 X115.912 Y108.121 E0.16063
G1 X115.912 Y108.630 E0.01457
G1 X119.370 Y112.088 E0.14003
G1 X118.862 Y112.088 E0.01457
G1 X115.912 Y109.138 E0.11943
G1 X115.912 Y109.647 E0.01457
G1 X118.353 Y112.088 E0.09884
G1 X117.844 Y112.088 E0.01457
G1 X115.912 Y110.156 E0.07824
G1 X115.912 Y110.664 E0.01457
G1 X117.336 Y112.088 E0.05764
G1 X116.827 Y112.088 E0.01457
G1 X115.912 Y111.173 E0.03704
G1 X115.912 Y111.682 E0.01457
G1 X116.479 Y112.248 E0.02294
M204 S1000
M106 S255
G1 F5760
G1 X115.912 Y111.682 E-0.27753
G1 F5760
G1 X115.912 Y111.173 E-0.17619
G1 F5760
G1 X116.538 Y111.798 E-0.30628
G1 E-0.04000 F2100.00000
G1 Z1.900 F7200.000
G1 X115.632 Y107.268 F7200.000
G1 Z1.600 F7200.000
G1 E0.80000 F2100.00000
M204 S800
G1 F900
G1 X115.632 Y106.732 E0.01745
G1 X134.368 Y106.732 E0.61031
G1 X134.368 Y107.268 E0.01745
G1 X115.692 Y107.268 E0.60835
M204 S1000
G1 X115.225 Y107.675 F7200.000
M204 S800
G1 F900
G1 X115.225 Y106.325 E0.04398
G1 X134.775 Y106.325 E0.63683
G1 X134.775 Y107.675 E0.04398
G1 X115.285 Y107.675 E0.63487
M204 S1000
G1 X115.417 Y107.324 F7200.000
G1 X115.836 Y107.000 F7200.000
G1 F900
G1 X134.164 Y107.000 E0.10747
G1 F5760
G1 X131.970 Y107.000 E-0.76000
G1 E-0.04000 F2100.00000
G1 Z2.100 F7200.000
G1 X134.368 Y107.268 F7200.000
G1 Z1.800 F7200.000
G1 E0.80000 F2100.00000
M204 S800
G1 F900
G1 X115.632 Y107.268 E0.61031
G1 X115.632 Y106.732 E0.01745
G1 X134.368 Y106.732 E0.61031
G1 X134.368 Y107.208 E0.01550
M204 S1000
G1 X134.775 Y107.675 F7200.000
M204 S800
G1 F900
G1 X115.225 Y107.675 E0.63683
G1 X115.225 Y106.325 E0.04398
G1 X134.775 Y106.325 E0.63683
G1 X134.775 Y107.615 E0.04202
M204 S1000
G1 X134.375 Y107.666 F7200.000
G1 X134.164 Y107.000 F7200.000
G1 F900
G1 X115.836 Y107.000 E0.10747
G1 F5760
G1 X118.030 Y107.000 E-0.76000
G1 E-0.04000 F2100.00000
G1 Z2.300 F7200.000
G1 X115.632 Y107.268 F7200.000
G1 Z2.000 F7200.000
G1 E0.80000 F2100.00000
M204 S800
G1 F900
G1 X115.632 Y106.732 E0.01745
G1 X134.368 Y106.732 E0.61031
G1 X134.368 Y107.268 E0.01745
G1 X115.692 Y107.268 E0.60835
M204 S1000
G1 X115.225 Y107.675 F7200.000
M204 S800
G1 F900
G1 X115.225 Y106.325 E0.04398
G1 X134.775 Y106.325 E0.63683
G1 X134.775 Y107.675 E0.04398
G1 X115.285 Y107.675 E0.63487
M204 S1000
G1 X115.417 Y107.324 F7200.000
G1 X115.836 Y107.000 F7200.000
G1 F900
G1 X134.164 Y107.000 E0.10747
G1 F5760
G1 X131.970 Y107.000 E-0.76000
G1 E-0.04000 F2100.00000
G1 Z2.500 F7200.000
G1 X134.368 Y107.268 F7200.000
G1 Z2.200 F7200.000
G1 E0.80000 F2100.00000
M204 S800
G1 F900
G1 X115.632 Y107.268 E0.61031
G1 X115.632 Y106.732 E0.01745
G1 X134.368 Y106.732 E0.61031
G1 X134.368 Y107.208 E0.01550
M204 S1000
G1 X134.775 Y107.675 F7200.000
M204 S800
G1 F900
G1 X115.225 Y107.675 E0.63683
G1 X115.225 Y106.325 E0.04398
G1 X134.775 Y106.325 E0.63683
G1 X134.775 Y107.615 E0.04202
M204 S1000
G1 X134.375 Y107.666 F7200.000
G1 X134.164 Y107.000 F7200.000
G1 F900
G1 X115.836 Y107.000 E0.10747
G1 F5760
G1 X118.030 Y107.000 E-0.76000
G1 E-0.04000 F2100.00000
G1 Z2.700 F7200.000
G1 X115.632 Y107.268 F7200.000
G1 Z2.400 F7200.000
G1 E0.80000 F2100.00000
M204 S800
G1 F900
G1 X115.632 Y106.732 E0.01745
G1 X134.368 Y106.732 E0.61031
G1 X134.368 Y107.268 E0.01745
G1 X115.692 Y107.268 E0.60835
M204 S1000
G1 X115.225 Y107.675 F7200.000
M204 S800
G1 F900
G1 X115.225 Y106.325 E0.04398
G1 X134.775 Y106.325 E0.63683
G1 X134.775 Y107.675 E0.04398
G1 X115.285 Y107.675 E0.63487
M204 S1000
G1 X115.417 Y107.324 F7200.000
G1 X115.836 Y107.000 F7200.000
G1 F900
G1 X134.164 Y107.000 E0.10747
G1 F5760
G1 X131.970 Y107.000 E-0.76000
G1 E-0.04000 F2100.00000
G1 Z2.900 F7200.000
G1 X134.368 Y107.268 F7200.000
G1 Z2.600 F7200.000
G1 E0.80000 F2100.00000
M204 S800
G1 F900
G1 X115.632 Y107.268 E0.61031
G1 X115.632 Y106.732 E0.01745
G1 X134.368 Y106.732 E0.61031
G1 X134.368 Y107.208 E0.01550
M204 S1000
G1 X134.775 Y107.675 F7200.000
M204 S800
G1 F900
G1 X115.225 Y107.675 E0.63683
G1 X115.225 Y106.325 E0.04398
G1 X134.775 Y106.325 E0.63683
G1 X134.775 Y107.615 E0.04202
M204 S1000
G1 X134.375 Y107.666 F7200.000
G1 X134.164 Y107.000 F7200.000
G1 F900
G1 X115.836 Y107.000 E0.10747
G1 F5760
G1 X118.030 Y107.000 E-0.76000
G1 E-0.04000 F2100.00000
G1 Z3.100 F7200.000
G1 X115.632 Y107.268 F7200.000
G1 Z2.800 F7200.000
G1 E0.80000 F2100.00000
M204 S800
G1 F900
G1 X115.632 Y106.732 E0.01745
G1 X134.368 Y106.732 E0.61031
G1 X134.368 Y107.268 E0.01745
G1 X115.692 Y107.268 E0.60835
M204 S1000
G1 X115.225 Y107.675 F7200.000
M204 S800
G1 F900
G1 X115.225 Y106.325 E0.04398
G1 X134.775 Y106.325 E0.63683
G1 X134.775 Y107.675 E0.04398
G1 X115.285 Y107.675 E0.63487
M204 S1000
G1 X115.417 Y107.324 F7200.000
G1 X115.836 Y107.000 F7200.000
G1 F900
G1 X134.164 Y107.000 E0.10747
G1 F5760
G1 X131.970 Y107.000 E-0.76000
G1 E-0.04000 F2100.00000
G1 Z3.300 F7200.000
G1 X134.368 Y107.268 F7200.000
G1 Z3.000 F7200.000
G1 E0.80000 F2100.00000
M204 S800
G1 F900
G1 X115.632 Y107.268 E0.61031
G1 X115.632 Y106.732 E0.01745
G1 X134.368 Y106.732 E0.61031
G1 X134.368 Y107.208 E0.01550
M204 S1000
G1 X134.775 Y107.675 F7200.000
M204 S800
G1 F900
G1 X115.225 Y107.675 E0.63683
G1 X115.225 Y106.325 E0.04398
G1 X134.775 Y106.325 E0.63683
G1 X134.775 Y107.615 E0.04202
M204 S1000
G1 X134.375 Y107.666 F7200.000
G1 X134.164 Y107.000 F7200.000
G1 F900
G1 X115.836 Y107.000 E0.10747
G1 F5760
G1 X118.030 Y107.000 E-0.76000
G1 E-0.04000 F2100.00000
G1 Z3.500 F7200.000
G1 X115.632 Y107.268 F7200.000
G1 Z3.200 F7200.000
G1 E0.80000 F2100.00000
M204 S800
G1 F900
G1 X115.632 Y106.732 E0.01745
G1 X134.368 Y106.732 E0.61031
G1 X134.368 Y107.268 E0.01745
G1 X115.692 Y107.268 E0.60835
M204 S1000
G1 X115.225 Y107.675 F7200.000
M204 S800
G1 F900
G1 X115.225 Y106.325 E0.04398
G1 X134.775 Y106.325 E0.63683
G1 X134.775 Y107.675 E0.04398
G1 X115.285 Y107.675 E0.63487
M204 S1000
G1 X115.417 Y107.324 F7200.000
G1 X115.836 Y107.000 F7200.000
G1 F900
G1 X134.164 Y107.000 E0.10747
G1 F5760
G1 X131.970 Y107.000 E-0.76000
G1 E-0.04000 F2100.00000
G1 Z3.700 F7200.000
G1 X134.368 Y107.268 F7200.000
G1 Z3.400 F7200.000
G1 E0.80000 F2100.00000
M204 S800
G1 F900
G1 X115.632 Y107.268 E0.61031
G1 X115.632 Y106.732 E0.01745
G1 X134.368 Y106.732 E0.61031
G1 X134.368 Y107.208 E0.01550
M204 S1000
G1 X134.775 Y107.675 F7200.000
M204 S800
G1 F900
G1 X115.225 Y107.675 E0.63683
G1 X115.225 Y106.325 E0.04398
G1 X134.775 Y106.325 E0.63683
G1 X134.775 Y107.615 E0.04202
M204 S1000
G1 X134.375 Y107.666 F7200.000
G1 X134.164 Y107.000 F7200.000
G1 F900
G1 X115.836 Y107.000 E0.10747
G1 F5760;_WIPE
G1 X118.030 Y107.000 E-0.76000
G1 E-0.04000 F2100.00000
G1 Z3.900 F7200.000
M107
; Filament-specific end gcode 
;END gcode for filament

G4 ; wait
M104 S0 ; turn off temperature
M140 S0 ; turn off heatbed
M107 ; turn off fan
G1 X0 Y200; home X axis
M84 ; disable motors
; filament used = 204.0mm (0.5cm3)
; total filament cost = 0.0

; avoid_crossing_perimeters = 0
; bed_shape = 0x0,250x0,250x210,0x210
; bed_temperature = 55
; before_layer_gcode = 
; bridge_acceleration = 1000
; bridge_fan_speed = 100
; brim_width = 0
; complete_objects = 0
; cooling = 1
; default_acceleration = 1000
; deretract_speed = 0
; disable_fan_first_layers = 1
; duplicate_distance = 6
; end_filament_gcode = "; Filament-specific end gcode \n;END gcode for filament\n"
; end_gcode = G4 ; wait\nM104 S0 ; turn off temperature\nM140 S0 ; turn off heatbed\nM107 ; turn off fan\nG1 X0 Y200; home X axis\nM84 ; disable motors
; extruder_clearance_height = 20
; extruder_clearance_radius = 20
; extruder_colour = #FFFF00
; extruder_offset = 0x0
; extrusion_axis = E
; extrusion_multiplier = 1
; fan_always_on = 1
; fan_below_layer_time = 100
; filament_colour = #FF14E2
; filament_cost = 0
; filament_density = 0
; filament_diameter = 1.75
; filament_max_volumetric_speed = 0
; filament_notes = "List of materials tested with standart PLA print settings for MK2:\n\nDas Filament\nEsun PLA\nEUMAKERS PLA\nFiberlogy HD-PLA\nFillamentum PLA\nFloreon3D\nHatchbox PLA\nPlasty Mladeč PLA\nPrimavalue PLA\nProto pasta Matte Fiber\nVerbatim PLA\nVerbatim BVOH"
; filament_soluble = 0
; filament_type = PLA
; first_layer_acceleration = 1000
; first_layer_bed_temperature = 55
; first_layer_extrusion_width = 0.42
; first_layer_speed = 70%
; first_layer_temperature = 215
; gcode_comments = 0
; gcode_flavor = reprap
; infill_acceleration = 2000
; infill_first = 0
; layer_gcode = 
; max_fan_speed = 100
; max_layer_height = 0.25
; max_print_speed = 100
; max_volumetric_extrusion_rate_slope_negative = 0
; max_volumetric_extrusion_rate_slope_positive = 0
; max_volumetric_speed = 0
; min_fan_speed = 85
; min_layer_height = 0.07
; min_print_speed = 15
; min_skirt_length = 4
; notes = 
; nozzle_diameter = 0.4
; only_retract_when_crossing_perimeters = 0
; ooze_prevention = 0
; output_filename_format = [input_filename_base].gcode
; perimeter_acceleration = 800
; post_process = 
; printer_notes = 
; resolution = 0
; retract_before_travel = 1
; retract_before_wipe = 0%
; retract_layer_change = 1
; retract_length = 0.8
; retract_length_toolchange = 3
; retract_lift = 0.5
; retract_lift_above = 1
; retract_lift_below = 199
; retract_restart_extra = 0
; retract_restart_extra_toolchange = 0
; retract_speed = 35
; single_extruder_multi_material = 0
; skirt_distance = 2
; skirt_height = 3
; skirts = 0
; slowdown_below_layer_time = 25
; spiral_vase = 0
; standby_temperature_delta = -5
; start_filament_gcode = "; Filament gcode\n"
; start_gcode = M115 U3.0.12 ; tell printer latest fw version\nM83  ; extruder relative mode\nM104 S[first_layer_temperature] ; set extruder temp\nM140 S[first_layer_bed_temperature] ; set bed temp\nM190 S[first_layer_bed_temperature] ; wait for bed temp\nM109 S[first_layer_temperature] ; wait for extruder temp\nG28 W ; home all without mesh bed level\nG80 ; mesh bed leveling\nG1 Y-3.0 F1000.0 ; go outside pritn area\nG1 X60.0 E9.0  F1000.0 ; intro line\nG1 X100.0 E12.5  F1000.0 ; intro line
; temperature = 210
; threads = 4
; toolchange_gcode = 
; travel_speed = 120
; use_firmware_retraction = 0
; use_relative_e_distances = 1
; use_volumetric_e = 0
; variable_layer_height = 1
; wipe = 1
; wipe_tower = 1
; wipe_tower_per_color_wipe = 15
; wipe_tower_width = 60
; wipe_tower_x = 180
; wipe_tower_y = 140
; z_offset = 0
; clip_multipart_objects = 1
; dont_support_bridges = 1
; elefant_foot_compensation = 0
; extrusion_width = 0.45
; first_layer_height = 0.2
; infill_only_where_needed = 0
; interface_shells = 0
; layer_height = 0.2
; raft_layers = 0
; seam_position = nearest
; support_material = 0
; support_material_angle = 0
; support_material_buildplate_only = 0
; support_material_contact_distance = 0.15
; support_material_enforce_layers = 0
; support_material_extruder = 0
; support_material_extrusion_width = 0.35
; support_material_interface_contact_loops = 0
; support_material_interface_extruder = 0
; support_material_interface_layers = 2
; support_material_interface_spacing = 0.2
; support_material_interface_speed = 100%
; support_material_pattern = rectilinear
; support_material_spacing = 2
; support_material_speed = 50
; support_material_synchronize_layers = 0
; support_material_threshold = 35
; support_material_with_sheath = 0
; support_material_xy_spacing = 60%
; xy_size_compensation = 0
; bottom_solid_layers = 5
; bridge_flow_ratio = 0.95
; bridge_speed = 20
; ensure_vertical_shell_thickness = 1
; external_fill_pattern = rectilinear
; external_perimeter_extrusion_width = 0.45
; external_perimeter_speed = 30
; external_perimeters_first = 0
; extra_perimeters = 0
; fill_angle = 45
; fill_density = 50%
; fill_pattern = cubic
; gap_fill_speed = 40
; infill_every_layers = 1
; infill_extruder = 1
; infill_extrusion_width = 0.45
; infill_overlap = 25%
; infill_speed = 60
; overhangs = 1
; perimeter_extruder = 1
; perimeter_extrusion_width = 0.45
; perimeter_speed = 40
; perimeters = 2
; small_perimeter_speed = 20
; solid_infill_below_area = 0
; solid_infill_every_layers = 0
; solid_infill_extruder = 1
; solid_infill_extrusion_width = 0.45
; solid_infill_speed = 40
; thin_walls = 0
; top_infill_extrusion_width = 0.4
; top_solid_infill_speed = 30
; top_solid_layers = 6
